﻿[
    {
        "no": 1,
        "Supervisor": "Abylay Amangeldiuly",
        "Project Name": "VolunteerMe",
        "Category": "Programming",
        "Country": "Kazakhhstan",
        "School": "NIS CBD Atyrau",
        "Student-1": "Abylay Amangeldiuly",
        "Student-2": "Aibar Sagingali",
        "Student-3": "Rizabek Utegenov"
    },
    {
        "no": 2,
        "Supervisor": "Mariyam Duanbek",
        "Project Name": "Jameco Universe",
        "Category": "Programming",
        "Country": "Kazakhhstan",
        "School": "Jambyl Innovation High College",
        "Student-1": "Niyaz Rasylkhan Adiluly",
        "Student-2": "Mariyam Duanbek Kuatkyzy"
    },
    {
        "no": 3,
        "Supervisor": "Алима Бердімбет",
        "Project Name": "Python image recognition",
        "Category": "Programming",
        "Country": "Kazakhhstan",
        "School": "\"Дарын\" ММИ, КММ",
        "Student-1": "Alima Berdimbet"
    },
    {
        "no": 4,
        "Supervisor": "Zhanar Moldabayeva",
        "Project Name": "«MedIm: Artificial Intelligence System for Pneumonia Detection»",
        "Category": "Programming",
        "Country": "Kazakhhstan",
        "School": "NIS of PhM, Nur-Sultan",
        "Student-1": "Nargiz Akhmetova"
    },
    {
        "no": 5,
        "Supervisor": "Boris Zelenov",
        "Project Name": "ChestXRayAI",
        "Category": "Programming",
        "Country": "Kazakhhstan",
        "School": "NIS PhM, Ural",
        "Student-1": "Almas Saparov"
    },
    {
        "no": 6,
        "Supervisor": "Bakhytzhan Myktybayev",
        "Project Name": "BookCrossing App",
        "Category": "Programming",
        "Country": "Kazakhhstan",
        "School": "Jambyl Innovation High College",
        "Student-1": "Rysbek Alnur",
        "Student-2": "Berikkazy Madi"
    },
    {
        "no": 7,
        "Supervisor": "Bakhytzhan Myktybayev",
        "Project Name": "Scratch Learning",
        "Category": "Programming",
        "Country": "Kazakhhstan",
        "School": "Jambyl Innovation High College",
        "Student-1": "Sayakbay Ulbosyn",
        "Student-2": "Yeren Merey"
    },
    {
        "no": 8,
        "Supervisor": "Dovran Sazakov",
        "Project Name": "JUNIOR PROGRAMMING LANGUAGE",
        "Category": "Programming",
        "Country": "Turkmenistan",
        "School": "School N26 specialized in English, Chemistry and Biology",
        "Student-1": "Ismailov Ihlasbek",
        "Student-2": "Berdihanov Dayanch"
    },
    {
        "no": 9,
        "Supervisor": "Bakhytzhan Myktybayev",
        "Project Name": "iGrants App",
        "Category": "Programming",
        "Country": "Kazakhhstan",
        "School": "Jambyl Innovation High College",
        "Student-1": "Kalenov Abay",
        "Student-2": "Bidaliyev Ayat"
    },
    {
        "no": 10,
        "Supervisor": "Bakhytzhan Myktybayev",
        "Project Name": "Umtyl App",
        "Category": "Programming",
        "Country": "Kazakhhstan",
        "School": "Jambyl Innovation High College",
        "Student-1": "Kauymbaev Kalizhan",
        "Student-2": "Sovetaly Daniyar"
    },
    {
        "no": 11,
        "Supervisor": "Bakhytzhan Myktybayev",
        "Project Name": "Ozindi Damyt App",
        "Category": "Programming",
        "Country": "Kazakhhstan",
        "School": "Jambyl Innovation High College",
        "Student-1": "Ayazbek Temirlan",
        "Student-2": "Zhainakov Yerassyl"
    },
    {
        "no": 12,
        "Supervisor": "Bakhytzhan Myktybayev",
        "Project Name": "Call Of Duty App",
        "Category": "Programming",
        "Country": "Kazakhhstan",
        "School": "Jambyl Innovation High College",
        "Student-1": "Sadir Nurshat",
        "Student-2": "Serik Mukhamejan"
    },
    {
        "no": 13,
        "Supervisor": "Vladislav Yelisseyev",
        "Project Name": "Development of a mobile application for a cafe Traveler's Coffee",
        "Category": "Programming",
        "Country": "Kazakhhstan",
        "School": "Gymnasium № 15, Almaty",
        "Student-1": "Vladisalv Yelisseyev Vyacheslavovich",
        "Student-2": "Zhorzh Mikayelyan Sergeyevich"
    },
    {
        "no": 14,
        "Supervisor": "Alexandr Kotov",
        "Project Name": "Heart Disease Detection System",
        "Category": "Programming",
        "Country": "Kazakhhstan",
        "School": "IT lyceum boarding school, Taraz",
        "Student-1": "Kamil Kasim"
    },
    {
        "no": 15,
        "Supervisor": "Yerkebulan Sagyntay",
        "Project Name": "Sedakah ",
        "Category": "Programming",
        "Country": "Kazakhhstan",
        "School": "Jambyl Innovation High College",
        "Student-1": "Yerassyl Turarbek",
        "Student-2": "Azamat Tastemirov",
        "Student-3": "Almas Ashimbekov"
    },
    {
        "no": 16,
        "Supervisor": "Yusup Ovezov",
        "Project Name": "High_protection_on_edication_web_system",
        "Category": "Programming",
        "Country": "Turkmenistan",
        "School": "Ashgabat city Saparmurat Turkmenbashi Specialized Comprehensive Boarding School",
        "Student-1": "BAYNAZAR MUHAMMEDOV",
        "Student-2": "HOJAMYRAT BAYLIYEV"
    },
    {
        "no": 17,
        "Supervisor": "Madi Medet",
        "Project Name": "Alternative Education",
        "Category": "Programming",
        "Country": "Kazakhhstan",
        "School": "Nazarbayev Intellectual School in Aktau",
        "Student-1": "Rasul Abuov",
        "Student-2": "Aisultan Baktygaly",
        "Student-3": "Magzhan Zakariya"
    },
    {
        "no": 18,
        "Supervisor": "Yusup Ovezov",
        "Project Name": "Remodeling_the_coding_to_avoid_TLE",
        "Category": "Programming",
        "Country": "Turkmenistan",
        "School": "Ashgabat city Saparmurat Turkmenbashi Specialized Comprehensive Boarding School",
        "Student-1": "HOJAMYRAT BAYLIYEV",
        "Student-2": "BAYNAZAR MUHAMMEDOV"
    },
    {
        "no": 19,
        "Supervisor": "Saya Kurmanalina",
        "Project Name": "\"Saule\" mobile application",
        "Category": "Programming",
        "Country": "Kazakhhstan",
        "School": "Nazarbayev Intellectual School in Aktobe",
        "Student-1": "Saya Kurmanalina"
    },
    {
        "no": 20,
        "Supervisor": "Madi Medet",
        "Project Name": "SoilesK ",
        "Category": "Programming",
        "Country": "Kazakhhstan",
        "School": "Nazarbayev Intellectual School in Aktau",
        "Student-1": "Zhenisgul Amangeldiyeva"
    },
    {
        "no": 21,
        "Supervisor": "Timur Kyrbassov",
        "Project Name": "Using of ICT in learning the history of my city/country",
        "Category": "Programming",
        "Country": "Kazakhhstan",
        "School": "Gymnasium №15, Almaty",
        "Student-1": "Timur Kyrbassov Zhandosovich"
    },
    {
        "no": 22,
        "Supervisor": "Saniya Mukhambetkaliyeva",
        "Project Name": "Tozbe ",
        "Category": "Programming",
        "Country": "Kazakhhstan",
        "School": "Haileybury Almaty",
        "Student-1": "Saniya Mukhambetkaliyeva",
        "Student-2": "Aruzhan Nussipzhan",
        "Student-3": "Selin Chetinelli"
    },
    {
        "no": 23,
        "Supervisor": "rauan zhaukenov",
        "Project Name": "Dom.kz",
        "Category": "Programming",
        "Country": "Kazakhhstan",
        "School": "BIL Pavlodar",
        "Student-1": "Alisher Karkinbayev",
        "Student-2": "Danial Arynov"
    },
    {
        "no": 24,
        "Supervisor": "Ansar Akim",
        "Project Name": "WEBSITE FOR IELTS SPEAKING QASQYR",
        "Category": "Programming",
        "Country": "Kazakhhstan",
        "School": "NIS TARAZ",
        "Student-1": "Abdikul Sayat"
    },
    {
        "no": 25,
        "Supervisor": "Meirman Absatov",
        "Project Name": "KazUnivers ",
        "Category": "Programming",
        "Country": "Kazakhhstan",
        "School": "Nur-Sultan BIL",
        "Student-1": "Beisenali Kanalkhan",
        "Student-2": "Yklas Almasuly",
        "Student-3": "Smaiyl Orynbai"
    },
    {
        "no": 26,
        "Supervisor": "Zhonder Suleimenova",
        "Project Name": "VUA ",
        "Category": "Programming",
        "Country": "Kazakhhstan",
        "School": "ZHBIL, Zhanaozen",
        "Student-1": "Darkhan Nurzhigit",
        "Student-2": "Batyrzhan Nurzhayikuly"
    },
    {
        "no": 27,
        "Supervisor": "Zhonder Suleimenova",
        "Project Name": "All-For-One",
        "Category": "Programming",
        "Country": "Kazakhhstan",
        "School": "ZHBIL, Zhanaozen",
        "Student-1": "Dias Kakharman"
    },
    {
        "no": 28,
        "Supervisor": "Beibarys Umirbayev",
        "Project Name": "Bee Volunteers",
        "Category": "Programming",
        "Country": "Kazakhhstan",
        "School": "NIS CBD Karaganda",
        "Student-1": "Almubdi Mutaikhan",
        "Student-2": "Balausa Zhandarbek",
        "Student-3": "Ayazhan Karabek"
    },
    {
        "no": 29,
        "Supervisor": "Azat Issin",
        "Project Name": "Covid-19 Web App",
        "Category": "Programming",
        "Country": "Kazakhhstan",
        "School": "Spectrum International School, Nur-Sultan",
        "Student-1": "OMER GESEN FARUK",
        "Student-2": "Enes Ozdemir",
        "Student-3": "Mussa Ozgeziji"
    },
    {
        "no": 30,
        "Supervisor": "Rizabek Utegenov",
        "Project Name": "Travel & Share",
        "Category": "Programming",
        "Country": "Kazakhhstan",
        "School": "Nazarbayev Intellectual School, Atyrau",
        "Student-1": "Rizabek Utegenov"
    },
    {
        "no": 31,
        "Supervisor": "Ansat Jartybayev",
        "Project Name": "Ekittens ",
        "Category": "Programming",
        "Country": "Kazakhhstan",
        "School": "Nazarbayev Intellectual School, Nur-Sultan",
        "Student-1": "ANSAT JARTYBAYEV"
    },
    {
        "no": 32,
        "Supervisor": "Ansar Seitzhan",
        "Project Name": "discount aggregator",
        "Category": "Programming",
        "Country": "Kazakhhstan",
        "School": "92 lyceum, Almaty",
        "Student-1": "Ansar Seitzhan"
    },
    {
        "no": 33,
        "Supervisor": "Aldiyar Adil",
        "Project Name": "BeSafeTogether",
        "Category": "Programming",
        "Country": "Kazakhhstan",
        "School": "NIS PhM, Almaty",
        "Student-1": "Aldiyar Adil",
        "Student-2": "Alfarabi Bolatbek"
    },
    {
        "no": 34,
        "Supervisor": "Zhanadil Meirimzhanuly",
        "Project Name": "I-Banking",
        "Category": "Programming",
        "Country": "Kazakhhstan",
        "School": "Suleyman Demirel College Lyceum, Almaty",
        "Student-1": "Sultan Abil",
        "Student-2": "Alikhan Gabdullin"
    },
    {
        "no": 35,
        "Supervisor": "Abubakir Nunuly",
        "Project Name": "HiSo ",
        "Category": "Programming",
        "Country": "Kazakhhstan",
        "School": "NIS PhM Nur-Sultan",
        "Student-1": "Danial Baizak",
        "Student-2": "Abubakir Nunuly"
    },
    {
        "no": 36,
        "Supervisor": "Assylzhan Yegeb",
        "Project Name": "Uprep ",
        "Category": "Programming",
        "Country": "Kazakhhstan",
        "School": "Nazarbayev Intellectual School, Nur-Sultan",
        "Student-1": "Assylzhan Yegen"
    },
    {
        "no": 37,
        "Supervisor": "Nursultan Akhmetov",
        "Project Name": "BILbot ",
        "Category": "Programming",
        "Country": "Kazakhhstan",
        "School": "Karaganda BIL #1",
        "Student-1": "Alibi Ansar",
        "Student-2": "Alibek Aglanov"
    },
    {
        "no": 38,
        "Supervisor": "Nursultan Akhmetov",
        "Project Name": "BookWorm34 ",
        "Category": "Programming",
        "Country": "Kazakhhstan",
        "School": "Karaganda BIL #1",
        "Student-1": "Damir Anirov",
        "Student-2": "Amir Kunuspekov"
    },
    {
        "no": 39,
        "Supervisor": "Gaziza Makhambetova",
        "Project Name": "Creating a signal decoder on the Arduino platform",
        "Category": "Programming",
        "Country": "Kazakhhstan",
        "School": "159 gymnasium, Almaty",
        "Student-1": "Turganov Akhmetzhan",
        "Student-2": "Ten Nariman"
    },
    {
        "no": 40,
        "Supervisor": "Raiian Kaiyr",
        "Project Name": "Playground house kids’ club",
        "Category": "Programming",
        "Country": "Kazakhhstan",
        "School": "#2 Bilim-Innovation lyceum for girls, Almaty",
        "Student-1": "Mariyam Kemelbay",
        "Student-2": "Raiian Kaiyr"
    },
    {
        "no": 41,
        "Supervisor": "Aishat Yatarova",
        "Project Name": "Watre ",
        "Category": "Programming",
        "Country": "Kazakhhstan",
        "School": "BIL for gifted girls, Atyrau",
        "Student-1": "Amina Shafkhatova",
        "Student-2": "Aishat Yatarova"
    },
    {
        "no": 42,
        "Supervisor": "Dinmukhamed Sybailas",
        "Project Name": "PT Life",
        "Category": "Programming",
        "Country": "Kazakhhstan",
        "School": "Astana, Nurorda",
        "Student-1": "Dinmukhamed Sybailas",
        "Student-2": "KUSDAVLETOV ELDAR"
    },
    {
        "no": 43,
        "Supervisor": "Базарбаев Жанболат",
        "Project Name": "Olympiad helper ",
        "Category": "Programming",
        "Country": "Kazakhhstan",
        "School": "Құлсары лицейі",
        "Student-1": "Сериков Алдияр",
        "Student-2": "Токсанбай Асет"
    },
    {
        "no": 44,
        "Supervisor": "Базарбаев Жанболат",
        "Project Name": "Poems Bot",
        "Category": "Programming",
        "Country": "Kazakhhstan",
        "School": "Құлсары лицейі",
        "Student-1": "Аманқос Әлисұлтан",
        "Student-2": "Максутов Нұрдаулет"
    },
    {
        "no": 45,
        "Supervisor": "Базарбаев Жанболат",
        "Project Name": "Info-BIL bot",
        "Category": "Programming",
        "Country": "Kazakhhstan",
        "School": "Құлсары лицейі",
        "Student-1": "Ерназ Амангельдин",
        "Student-2": "Сұлтангерейұлы Равиль"
    },
    {
        "no": 46,
        "Supervisor": "Amrenov Kairbolat",
        "Project Name": "Kòmek",
        "Category": "Programming",
        "Country": "Kazakhhstan",
        "School": "Қарағанды қыздар БИЛ",
        "Student-1": "Abisheva Assem Maratovna",
        "Student-2": "Yergaliyeva Kamila Sabyrovna"
    },
    {
        "no": 47,
        "Supervisor": "Куанбеков Адильжан",
        "Project Name": "Speed Games",
        "Category": "Programming",
        "Country": "Kazakhhstan",
        "School": "Атырау ерлер БИЛ",
        "Student-1": "Хасанов Арон"
    },
    {
        "no": 48,
        "Supervisor": "Абай Базаркулов",
        "Project Name": "Kovalski",
        "Category": "Robotics-LegoMissions",
        "Country": "Kyrgyzstan",
        "School": "Bilimkana-Bishkek",
        "Student-1": "Kutman Malikov Mukhtarovich",
        "Student-2": "Urmat Toktokozhoev"
    },
    {
        "no": 49,
        "Supervisor": "Almazbek Asanbaev",
        "Project Name": "Baatyr",
        "Category": "Robotics-LegoMissions",
        "Country": "Kyrgyzstan",
        "School": "Bishkek Ch. Aitmatov High School",
        "Student-1": "Rakhim Marat uulu",
        "Student-2": "Emir Soronbaev"
    },
    {
        "no": 50,
        "Supervisor": "Baglan Shinibekov",
        "Project Name": "RAMPAGE",
        "Category": "Robotics-LegoMissions",
        "Country": "Kazakhhstan",
        "School": "IT lyceum, Taraz",
        "Student-1": "Beknur Les Kairatuly",
        "Student-2": "Alibek Botbai Galymzhanuly",
        "Student-3": "Murat Beibitov Sakenuly"
    },
    {
        "no": 51,
        "Supervisor": "Baglan Shinibekov",
        "Project Name": "Phantom Kings",
        "Category": "Robotics-LegoMissions",
        "Country": "Kazakhhstan",
        "School": "IT lyceum, Taraz",
        "Student-1": "Nurbek Amanbai Qaidaraliuly",
        "Student-2": "Arif Yerbolov Altaiuly",
        "Student-3": "Ramazan Kemelbek Mahsatuly"
    },
    {
        "no": 52,
        "Supervisor": "Dastan Toktosunov",
        "Project Name": "LEGO MISSION IMPOSSIBLE",
        "Category": "Robotics-LegoMissions",
        "Country": "Kyrgyzstan",
        "School": "AKYLTAI, Bishkek",
        "Student-1": "Айдин Расулов Мирбекович",
        "Student-2": "AILIN NOGAEVA",
        "Student-3": "ZHOU XIANGYU"
    },
    {
        "no": 53,
        "Supervisor": "Dastan Toktosunov",
        "Project Name": "AKYLTAI",
        "Category": "Robotics-LegoMissions",
        "Country": "Kyrgyzstan",
        "School": "AKYLTAI, Bishkek",
        "Student-1": "Нажимидинов Исхак Мамытбекович",
        "Student-2": "Абдуллабек Алимжанов Бактыярович",
        "Student-3": "ELKHAN BAZARAKUNOV"
    },
    {
        "no": 54,
        "Supervisor": "Dastan Toktosunov",
        "Project Name": "leGO : GLOBAL OFFENSIVE",
        "Category": "Robotics-LegoMissions",
        "Country": "Kyrgyzstan",
        "School": "SEITEK STEM SCHOOL, Bishkek",
        "Student-1": "Мустафа Каипов Марсович",
        "Student-2": "Тимур Артыков Ажимуратович"
    },
    {
        "no": 55,
        "Supervisor": "Dastan Toktosunov",
        "Project Name": "MISSION COMPLETE",
        "Category": "Robotics-LegoMissions",
        "Country": "Kyrgyzstan",
        "School": "Образовательный центр Fantasy People, Bishkek",
        "Student-1": "Амирхан Сусузов Махмутович",
        "Student-2": "Рамазан Мамасадыков Нурбекович",
        "Student-3": "Рай Жолдошбеков Алтынбекович"
    },
    {
        "no": 56,
        "Supervisor": "Serdar Pulatov",
        "Project Name": "ROBO-SPACE",
        "Category": "Robotics-LegoMissions",
        "Country": "Vietnam",
        "School": "Horizon International Bilingual School, Ho Chi Minh City",
        "Student-1": "Mansur Kazbekuly",
        "Student-2": "LAMIYAUMIT KAZBEKKYZY"
    },
    {
        "no": 57,
        "Supervisor": "ADILET KASYMOV",
        "Project Name": "Matrix",
        "Category": "Robotics-LegoMissions",
        "Country": "Kyrgyzstan",
        "School": "Educational Complex ILIM, Bishkek",
        "Student-1": "Arsen Muktarov",
        "Student-2": "Dmitrii Karpenko",
        "Student-3": "Nazarov Nur"
    },
    {
        "no": 58,
        "Supervisor": "Assylzhan Tulemisov",
        "Project Name": 15,
        "Category": "Robotics-LegoMissions",
        "Country": "Kazakhhstan",
        "School": "Bilim-Innovation Lyceum, Petropavl",
        "Student-1": "Assylzhan Tyulemissov",
        "Student-2": "Almat Zhanakov"
    },
    {
        "no": 59,
        "Supervisor": "Muharrem Kayhan",
        "Project Name": "Lego Mission",
        "Category": "Robotics-LegoMissions",
        "Country": "Kazakhhstan",
        "School": "Galaxy International School, Almaty",
        "Student-1": "Tarik Coskun",
        "Student-2": "Zhanserik Shardarbekov Galymzhanovich",
        "Student-3": "Muhammed Ali Turk Yukseloglu"
    },
    {
        "no": 60,
        "Supervisor": "Muharrem Kayhan",
        "Project Name": "Lego Mission",
        "Category": "Robotics-LegoMissions",
        "Country": "Kazakhhstan",
        "School": "Galaxy International School, Almaty",
        "Student-1": "Talha Coskun",
        "Student-2": "JemalYassir Yalcin",
        "Student-3": "Ramazan Aytekin Karaman"
    },
    {
        "no": 61,
        "Supervisor": "Zaure Oralova",
        "Project Name": "Hippo",
        "Category": "Robotics-LegoMissions",
        "Country": "Kazakhhstan",
        "School": "№1 BIL for gifted boys, Shymkent",
        "Student-1": "Bektas Zhanali Alimkhanuly",
        "Student-2": "Rakhat Bolat Bolatuly"
    },
    {
        "no": 62,
        "Supervisor": "Meirman Absatov",
        "Project Name": "Bodybuilders",
        "Category": "Robotics-LegoMissions",
        "Country": "Kazakhhstan",
        "School": "BIL, Nur-Sultan",
        "Student-1": "Imanseit Baltabay",
        "Student-2": "Aliakbar Ospan",
        "Student-3": " Nurmuhammed Taubakabyl"
    },
    {
        "no": 63,
        "Supervisor": "Meirman Absatov",
        "Project Name": "NoName",
        "Category": "Robotics-LegoMissions",
        "Country": "Kazakhhstan",
        "School": "BIL, Nur-Sultan",
        "Student-1": "Bekasyl Alibek",
        "Student-2": "Zhanbolat Telgozy",
        "Student-3": "Nurmyrza Baizhanov"
    },
    {
        "no": 64,
        "Supervisor": "Meirman Absatov",
        "Project Name": "Lego Mission",
        "Category": "Robotics-LegoMissions",
        "Country": "Kazakhhstan",
        "School": "BIL, Nur-Sultan",
        "Student-1": "Arman Isayev",
        "Student-2": "Adilet Serikbay",
        "Student-3": "Sultanbek Baizhanov"
    },
    {
        "no": 65,
        "Supervisor": "Zhonder Suleimenova",
        "Project Name": "SHREK",
        "Category": "Robotics-LegoMissions",
        "Country": "Kazakhhstan",
        "School": "ZHBIL, Zhanaozen",
        "Student-1": "Nurtay Issabergen",
        "Student-2": "Kuandyk Sagynbayev"
    },
    {
        "no": 66,
        "Supervisor": "Baglan Shinibekov",
        "Project Name": "Armada",
        "Category": "Robotics-LegoMissions",
        "Country": "Kazakhhstan",
        "School": "Taraz IT, Taraz",
        "Student-1": "Nurdaulet Kopbosyn Yerbolatuly",
        "Student-2": "Alibi Ospan Almazuly",
        "Student-3": "Bekzhan Kerimbek Quralbekuly"
    },
    {
        "no": 67,
        "Supervisor": "laiykh bakhara",
        "Project Name": "Spaceguards",
        "Category": "Robotics-LegoMissions",
        "Country": "Kazakhhstan",
        "School": "BIL for gifted girls, Pavlodar",
        "Student-1": "Danel Omurbayeva",
        "Student-2": "Zhibek Syzdykova",
        "Student-3": "Alua Kuandyk Mukhametgaly"
    },
    {
        "no": 68,
        "Supervisor": "laiykh bakhara",
        "Project Name": "kosmonavtik",
        "Category": "Robotics-LegoMissions",
        "Country": "Kazakhhstan",
        "School": "BIL for gifted girls, Pavlodar",
        "Student-1": "Aruzhan Nurmagambet",
        "Student-2": "Aiymai Amerkulova",
        "Student-3": "Saniya Mukan"
    },
    {
        "no": 69,
        "Supervisor": "laiykh bakhara",
        "Project Name": "Robot Assistant",
        "Category": "Robotics-LegoMissions",
        "Country": "Kazakhhstan",
        "School": "BIL for gifted girls, Pavlodar",
        "Student-1": "Anel Sagyntai Altynbekkyzy",
        "Student-2": "Anara Mirzakhanova Ulugbekovna",
        "Student-3": "Umitzhan Beisembai Nurlankyzy"
    },
    {
        "no": 70,
        "Supervisor": "laiykh bakhara",
        "Project Name": "Engene team",
        "Category": "Robotics-LegoMissions",
        "Country": "Kazakhhstan",
        "School": "BIL for gifted girls, Pavlodar",
        "Student-1": "Dilnaz Kadyrbaeva Rauanovna",
        "Student-2": "Zhanel Tulegen Kenzhebekkyzy",
        "Student-3": "Daniya Zhangazinova Darkhanovna"
    },
    {
        "no": 71,
        "Supervisor": "Manchuk Daku",
        "Project Name": "TechBees",
        "Category": "Robotics-LegoMissions",
        "Country": "Kazakhhstan",
        "School": "Nurorda school lyceum, Nur-Sultan",
        "Student-1": "Togzhan Kaiyrbay",
        "Student-2": "Zhaniya Abdirova",
        "Student-3": "Aizere Mukhtarova"
    },
    {
        "no": 72,
        "Supervisor": "Manchuk Daku",
        "Project Name": "Supremes",
        "Category": "Robotics-LegoMissions",
        "Country": "Kazakhhstan",
        "School": "Nurorda school lyceum, Nur-Sultan",
        "Student-1": "Beksultan Abilek",
        "Student-2": "Ernar Talgat"
    },
    {
        "no": 73,
        "Supervisor": "Aidar Seiilkhanov",
        "Project Name": "CODE:002",
        "Category": "Robotics-LegoMissions",
        "Country": "Kazakhhstan",
        "School": "Nurmakov boarding school, Karagandy",
        "Student-1": "Abylai Turganbekov Ulanovich",
        "Student-2": "Nurgisa Madikenov Medetovich"
    },
    {
        "no": 74,
        "Supervisor": "Ali Zhangali",
        "Project Name": "New robot prototype of the future",
        "Category": "Robotics-LegoMissions",
        "Country": "Kazakhhstan",
        "School": "NIS FMN, Nur-Sultan",
        "Student-1": "Zhangali Ali",
        "Student-2": "Ardak Kuanyshev"
    },
    {
        "no": 75,
        "Supervisor": "Aktore Nassyrbek",
        "Project Name": "Щучинск IT БИЛ",
        "Category": "Robotics-LegoMissions",
        "Country": "Kazakhhstan",
        "School": "Shyuchinsk IT BIL",
        "Student-1": "ALDIYAR ZHAKSYLYK",
        "Student-2": "FATIKH AIDYN",
        "Student-3": "ZHUMAN IDRISSOV"
    },
    {
        "no": 76,
        "Supervisor": "Aibar Tolegenov",
        "Project Name": "Air quality tracker",
        "Category": "Robotics-Arduino Hackathon",
        "Country": "Kazakhhstan",
        "School": "BIL, Oskemen",
        "Student-1": "Aibar Tolegenov",
        "Student-2": "Damir Maksatuly"
    },
    {
        "no": 77,
        "Supervisor": "Дана Кульбаева",
        "Project Name": "птицефабрика \"Жас қанат\"",
        "Category": "Robotics-Arduino Hackathon",
        "Country": "Kazakhhstan",
        "School": "Гимназия имени Гани Муратбаева",
        "Student-1": "Анес Атагулов",
        "Student-2": "Равиль Исхаков"
    },
    {
        "no": 78,
        "Supervisor": "Yerzhan Auyezov",
        "Project Name": "Robot fixik",
        "Category": "Robotics-Arduino Hackathon",
        "Country": "Kazakhhstan",
        "School": "BIL, Oskemen",
        "Student-1": "Akzhol Samigolda",
        "Student-2": "Mautbek Sabyrzhan",
        "Student-3": "Temirzhan Tolybayev"
    },
    {
        "no": 79,
        "Supervisor": "Yusup Ovezov",
        "Project Name": "Eco-power71",
        "Category": "Robotics-Arduino Hackathon",
        "Country": "Turkmenistan",
        "School": "Ashgabat city Saparmurat Turkmenbashi Specialized Comprehensive Boarding School,",
        "Student-1": "KADYRMYRAT OVEZGYLYJOV",
        "Student-2": "YHLAS NURMUHAMMEDOV"
    },
    {
        "no": 80,
        "Supervisor": "Muharrem Kayhan",
        "Project Name": "Arduino Hackathon",
        "Category": "Robotics-Arduino Hackathon",
        "Country": "Kazakhhstan",
        "School": "Galaxy International School, Almaty",
        "Student-1": "suvansh jain",
        "Student-2": "Muhammet Yusuf Kaya"
    },
    {
        "no": 81,
        "Supervisor": "Assel Kassym",
        "Project Name": "Smart parking",
        "Category": "Robotics-Arduino Hackathon",
        "Country": "Kazakhhstan",
        "School": "КГУ \"Специализированная школа-интернат \"Дарын\", Karagandy",
        "Student-1": "Dastan Ismailov"
    },
    {
        "no": 82,
        "Supervisor": "Zaure Oralova",
        "Project Name": "Arduino Hackaton",
        "Category": "Robotics-Arduino Hackathon",
        "Country": "Kazakhhstan",
        "School": "№1 BIL for gifted boys, Shymkent",
        "Student-1": "Alinur Turdykul Mukhtaruly",
        "Student-2": "Yerasyl Qayipov Madali",
        "Student-3": "Yerasyl Tugelbay Muratuly"
    },
    {
        "no": 83,
        "Supervisor": "Miramgul Orynbaeva",
        "Project Name": "IA-319 ",
        "Category": "Robotics-Arduino Hackathon",
        "Country": "Kazakhhstan",
        "School": "Specialized school for gifted children, Taraz",
        "Student-1": "Amina Abdullaeva Malikovna",
        "Student-2": "Inkar Turgyn Bakbergenkyzy"
    },
    {
        "no": 84,
        "Supervisor": "Amre Abilakim",
        "Project Name": "Navi",
        "Category": "Robotics-Arduino Hackathon",
        "Country": "Kazakhhstan",
        "School": "Nurorda School-Lyceum, Nur-Sultan",
        "Student-1": "Alisher Samatov",
        "Student-2": "Erkegali Meyrambay"
    },
    {
        "no": 85,
        "Supervisor": "Meirman Absatov",
        "Project Name": "Arduino Hackathon: \"car with remote controller\" project",
        "Category": "Robotics-Arduino Hackathon",
        "Country": "Kazakhhstan",
        "School": "BIL, Nur-Sultan",
        "Student-1": "Margulan Kudaibergen",
        "Student-2": "Erkuat Dotayev",
        "Student-3": "Arystan Ashkei"
    },
    {
        "no": 86,
        "Supervisor": "Damir Maratov",
        "Project Name": "Z3",
        "Category": "Robotics-Arduino Hackathon",
        "Country": "Kazakhhstan",
        "School": "BIL, Taldykorgan",
        "Student-1": "Damir Maratov Daurenovich",
        "Student-2": "Nurbol Myrzash Manatbekuly",
        "Student-3": "Ali Sabitov Sakenovich"
    },
    {
        "no": 87,
        "Supervisor": "askar NURKEY",
        "Project Name": "arduino hackathon category",
        "Category": "Robotics-Arduino Hackathon",
        "Country": "Kazakhhstan",
        "School": "atyrau BILIM, Atyrau",
        "Student-1": "nursultan ramazan",
        "Student-2": "bergey satashev",
        "Student-3": "serik tilek"
    },
    {
        "no": 88,
        "Supervisor": "Aidar Seiilkhanov",
        "Project Name": "UnoBot ",
        "Category": "Robotics-Arduino Hackathon",
        "Country": "Kazakhhstan",
        "School": "Nurmakov boarding school, Karagandy",
        "Student-1": "Bakdaulet Argyngazy Erkebulanuly",
        "Student-2": "Zhasulan Askarbekov Talgatuly"
    },
    {
        "no": 89,
        "Supervisor": "askar NURKEY",
        "Project Name": "smart car",
        "Category": "Robotics-Arduino Hackathon",
        "Country": "Kazakhhstan",
        "School": "atyrau BILIM, Atyrau",
        "Student-1": "timur shapauov",
        "Student-2": "Dias kami"
    },
    {
        "no": 90,
        "Supervisor": "Tleukhan Bekbolat",
        "Project Name": "ПЕРЕХОД-THE CROSSING",
        "Category": "Short Movie",
        "Country": "Kazakhhstan",
        "School": "BIL, Petropavl",
        "Student-1": "Tleukhan Bekbolat Adiluly",
        "Student-2": "Daniyar Kayirgeldi Batyrbekuly",
        "Student-3": "Dilmukhamed Zhumagul Ismaganbetuly"
    },
    {
        "no": 91,
        "Supervisor": "Zhanara Zhumakhankyzy",
        "Project Name": "Your every move - your responsibility",
        "Category": "Short Movie",
        "Country": "Kazakhhstan",
        "School": "Specialized school for gifted children, Taraz",
        "Student-1": "Alibi Abdrakhman Madiyaruly",
        "Student-2": "Agzat Muratbekuly"
    },
    {
        "no": 92,
        "Supervisor": "Nurbolat Aytbekov",
        "Project Name": "/DILEMMA",
        "Category": "Short Movie",
        "Country": "Kazakhhstan",
        "School": "Specialized school for gifted children, Taraz",
        "Student-1": "Bibinur Zholdas Bakhytzhankyzy",
        "Student-2": "Aldiyar Sugurgali Armanuly"
    },
    {
        "no": 93,
        "Supervisor": "Serdar Pulatov",
        "Project Name": "Love Planet, Love Football",
        "Category": "Short Movie",
        "Country": "Vietnam",
        "School": "Horizon International Bilingual School, Ho Chi Minh City",
        "Student-1": "Mansur Kazbekuly",
        "Student-2": "LAMIYAUMIT KAZBEKKYZY"
    },
    {
        "no": 94,
        "Supervisor": "Danial Akanov",
        "Project Name": "CHILDHOOD DREAM",
        "Category": "Short Movie",
        "Country": "Kazakhhstan",
        "School": "BIL, Petropavl",
        "Student-1": "Alen Sultanov",
        "Student-2": "Danial Akanov"
    },
    {
        "no": 95,
        "Supervisor": "Mamurbek Savankulov",
        "Project Name": "Ecological problems from a child’s view",
        "Category": "Short Movie",
        "Country": "Tajikistan",
        "School": "Private Innovation School, Bokhtar",
        "Student-1": "Abubakr Kurbanov",
        "Student-2": "Hojiakbar Karimov",
        "Student-3": "Zaynali Mahmadzoir"
    },
    {
        "no": 96,
        "Supervisor": "Mamurbek Savankulov",
        "Project Name": "Respect elders",
        "Category": "Short Movie",
        "Country": "Tajikistan",
        "School": "Private Innovation School, Bokhtar",
        "Student-1": "Oisha Shomirzoda",
        "Student-2": "Mubina Sattorova",
        "Student-3": "Yahyo Nazarov"
    },
    {
        "no": 97,
        "Supervisor": "Amre Abilakim",
        "Project Name": "Судьбоносная монета",
        "Category": "Short Movie",
        "Country": "Kazakhhstan",
        "School": "Nurorda School-Lyceum, Nur-Sultan",
        "Student-1": "Tanat Kolomiytsev",
        "Student-2": "Kaisar Maksutov",
        "Student-3": "Timur Muzhikbayev"
    },
    {
        "no": 98,
        "Supervisor": "Нурасыл Тынышбай",
        "Project Name": "MAN OF 2022",
        "Category": "Short Movie",
        "Country": "Kazakhhstan",
        "School": "BIL, Kostanay",
        "Student-1": "Nurassyl Tynyshbai"
    },
    {
        "no": 99,
        "Supervisor": "Nurbek Almashev",
        "Project Name": "UPBRINGING in the letter days and importance of”Billim-Innovation” Lyceum",
        "Category": "Short Movie",
        "Country": "Kazakhhstan",
        "School": "BIL, Almaty",
        "Student-1": "Ismail Tau",
        "Student-2": "Turlan Salimgereyev",
        "Student-3": "Zhaksylyk Almashov"
    },
    {
        "no": 100,
        "Supervisor": "Alikhan Sailybaev",
        "Project Name": "Not Responsible Guy",
        "Category": "Short Movie",
        "Country": "Kazakhhstan",
        "School": "BIL,Qyzylorda ",
        "Student-1": "Alikhan Sailybaev",
        "Student-2": "Yersultan Karzhaubayev",
        "Student-3": "Bekzat Bassalkhayev"
    },
    {
        "no": 101,
        "Supervisor": "Meirman Absatov",
        "Project Name": "TEZDET",
        "Category": "Short Movie",
        "Country": "Kazakhhstan",
        "School": "BIL, Nur-Sultan",
        "Student-1": "Aset Dauletkazy",
        "Student-2": "Kuanysh Satymbek",
        "Student-3": "Sultanakhmet Temirbekov"
    },
    {
        "no": 102,
        "Supervisor": "Raikhan Berkenova",
        "Project Name": "Self-respect",
        "Category": "Short Movie",
        "Country": "Kazakhhstan",
        "School": "Bilim-Innovation lyceum 10, Qyzylorda",
        "Student-1": "Raıhan Berkenova Seıilbekqyzy"
    },
    {
        "no": 103,
        "Supervisor": "Zaure Oralova",
        "Project Name": "Be able to do the best you can",
        "Category": "Short Movie",
        "Country": "Kazakhhstan",
        "School": "№1 BIL for gifted boys, Shymkent",
        "Student-1": "Nurassyl Abdulla Ganiuly",
        "Student-2": "Arystan Orazaliyev Murataliuly",
        "Student-3": "Dinmuhammed Meyirbekov Muratuly"
    },
    {
        "no": 104,
        "Supervisor": "Anuar Magavin",
        "Project Name": "Jurttyn balasy",
        "Category": "Short Movie",
        "Country": "Kazakhhstan",
        "School": "BIL, Kostanay",
        "Student-1": "Айтуар Шагиров Мейрамұлы",
        "Student-2": "Дархан Жұмағазы Мұхтарұлы",
        "Student-3": "Диас Мұхамбет Дастанұлы"
    },
    {
        "no": 105,
        "Supervisor": "Alfiya Kutseva",
        "Project Name": "\"Creation of an automated system for a solid fuel boiler based on the ARDUINO controller platform\"",
        "Category": "Hardware Control",
        "Country": "Kazakhhstan",
        "School": "КГУ гимназия №24, Taraz",
        "Student-1": "Raushan Narimanova"
    },
    {
        "no": 106,
        "Supervisor": "Miramgul Orynbaeva",
        "Project Name": "Development of Autonomous farm \"AI-193\"",
        "Category": "Hardware Control",
        "Country": "Kazakhhstan",
        "School": "Specialized school for gifted children, Taraz",
        "Student-1": "Inkar Turgyn Bakbergenkyzy",
        "Student-2": "Amina Abdullaeva Malikovna"
    },
    {
        "no": 107,
        "Supervisor": "Madi Medet",
        "Project Name": "SenimPlus",
        "Category": "Hardware Control",
        "Country": "Kazakhhstan",
        "School": "NIS in Aktau",
        "Student-1": "Diana Kuvanbay Zhanibekqyzy",
        "Student-2": "Danil Muhalev"
    },
    {
        "no": 108,
        "Supervisor": "Ернар Омирзак",
        "Project Name": "Apparatus for producing bioplastics from a weed-based biopolymer",
        "Category": "Hardware Control",
        "Country": "Kazakhhstan",
        "School": "NIS of chemistry and biology in Aktau",
        "Student-1": "Yernar Omirzak",
        "Student-2": "Kanat Sakpayev",
        "Student-3": "Asiya Tedzhen"
    },
    {
        "no": 109,
        "Supervisor": "Alexandr Kotov",
        "Project Name": "AUTOMATED SYSTEM FOR SAVING WATER AND ENERGY RESOURCES IN AN APARTMENT BUILDING",
        "Category": "Hardware Control",
        "Country": "Kazakhhstan",
        "School": "IT lyceum boarding school, Taraz",
        "Student-1": "Sabina Muratbaikyzy",
        "Student-2": "Aishabibi Izteleu"
    },
    {
        "no": 110,
        "Supervisor": "Sarybayev Maksat",
        "Project Name": "\"Insights to increase the tourist potential of the future Taraz\"",
        "Category": "Hardware Control",
        "Country": "Kazakhhstan",
        "School": "Specialised school - boarding «Daryn» for especially gifted students, Taraz",
        "Student-1": "Bekasyl Duisembai",
        "Student-2": "Alikhan Zakirov"
    },
    {
        "no": 111,
        "Supervisor": "laiykh bakhara",
        "Project Name": "Rocking Machine",
        "Category": "Hardware Control",
        "Country": "Kazakhhstan",
        "School": "Billim Innovation High School for gifted girls, Pavlodar",
        "Student-1": "Nazym Kazhybekova",
        "Student-2": "Dilnaz Tabylbekova",
        "Student-3": "Nurai Kendibai"
    },
    {
        "no": 112,
        "Supervisor": "Nurtore Arynuruly",
        "Project Name": "Development of an autonomous modular mobile hydroponic farm with a remote control and automation system",
        "Category": "Hardware Control",
        "Country": "Kazakhhstan",
        "School": "NIS Ph&M, Nur-Sultan",
        "Student-1": "Нурторе Арынурулы",
        "Student-2": "Уалихан Ертаев"
    },
    {
        "no": 113,
        "Supervisor": "Azamat Tikenov",
        "Project Name": "Calculator",
        "Category": "Hardware Control",
        "Country": "Kazakhhstan",
        "School": "Областная специализированная школа-гимназия-интернат им. Жамбыла для одаренных детей, Oskemen",
        "Student-1": "Zhansaya Medetkhanova",
        "Student-2": "Meruyert Dauylkyzy"
    },
    {
        "no": 114,
        "Supervisor": "Azamat Tikenov",
        "Project Name": "QUEUE MANAGEMENT SYSTEM",
        "Category": "Hardware Control",
        "Country": "Kazakhhstan",
        "School": "Областная специализированная школа-гимназия-интернат им. Жамбыла для одаренных детей, Oskemen",
        "Student-1": "Dias Korpesh",
        "Student-2": "Dosymzhan Smailuly"
    },
    {
        "no": 115,
        "Supervisor": "Abdullah Yılmaz",
        "Project Name": "antifreeze level meter",
        "Category": "Hardware Control",
        "Country": "Kazakhhstan",
        "School": "№72 school-lyceum, Nur-Sultan",
        "Student-1": "ABDULLAKH IYLMAZ",
        "Student-2": "YUNUS ERYILMAZ"
    },
    {
        "no": 116,
        "Supervisor": "Kuandyk Bekkhuzhin",
        "Project Name": "Automatic device for filling disinfecting mats with disinfectant",
        "Category": "Hardware Control",
        "Country": "Kazakhhstan",
        "School": "Regional boarding school for gifted children named after Abu Dosmukhambetov, Petropavlovsk",
        "Student-1": "Yerassyl Kaiyrzhan",
        "Student-2": "Sultan Oral"
    },
    {
        "no": 117,
        "Supervisor": "rauan zhaukenov",
        "Project Name": "Arduinists",
        "Category": "Hardware Control",
        "Country": "Kazakhhstan",
        "School": "BIL for boys, Pavlodar",
        "Student-1": "Daniyar Tlektes",
        "Student-2": "Temirlan Farhad",
        "Student-3": "Amir Umiev"
    },
    {
        "no": 118,
        "Supervisor": "Zaure Oralova",
        "Project Name": "Smart Pet feeder",
        "Category": "Hardware Control",
        "Country": "Kazakhhstan",
        "School": "№1 Bilim-Innovation lyceum for gifted boys, Shymkent",
        "Student-1": "Zhannur Bakhytzhanuly",
        "Student-2": "Baglan Daulet Abdullauly",
        "Student-3": "Mikhail Yurikov Olegovich"
    },
    {
        "no": 119,
        "Supervisor": "Alexandr Kotov",
        "Project Name": "The prevention system of water leakage",
        "Category": "Hardware Control",
        "Country": "Kazakhhstan",
        "School": "IT lyceum boarding school, Taraz",
        "Student-1": "Asemai Kauas",
        "Student-2": "Tomiris Toktasyn",
        "Student-3": "Symbat Erbolova"
    },
    {
        "no": 120,
        "Supervisor": "Amre Abilakim",
        "Project Name": "Smart Office",
        "Category": "Hardware Control",
        "Country": "Kazakhhstan",
        "School": "Nurorda School-Lyceum, Nur-Sultan",
        "Student-1": "Amira Mahmedjan",
        "Student-2": "Sangina Abdurakhmanova",
        "Student-3": "Korkem Zharylkap"
    },
    {
        "no": 121,
        "Supervisor": "Akzhan Oskelen",
        "Project Name": "Bio-hand",
        "Category": "Hardware Control",
        "Country": "Kazakhhstan",
        "School": "Bilim-Innovation Lyceum, Qyzylorda",
        "Student-1": "Akzhan Oskelen"
    },
    {
        "no": 122,
        "Supervisor": "Saulet Tamabekova",
        "Project Name": "Development of innovative auxiliary robots in medicine",
        "Category": "Hardware Control",
        "Country": "Kazakhhstan",
        "School": "Boarding-school \"Daryn\", Taraz",
        "Student-1": "Sapargali Nurlan",
        "Student-2": "Didar Rinat",
        "Student-3": "Ramazan Sagynbek"
    },
    {
        "no": 123,
        "Supervisor": "Maral Markhamyet",
        "Project Name": "QOZ",
        "Category": "Hardware Control",
        "Country": "Kazakhhstan",
        "School": "Bilim-Innovation School for gifted girls, Nur-Sultan",
        "Student-1": "Amali Sarkyt Bauyrzhankyzy",
        "Student-2": "Ayaulim Orazbaeva Anuarovna"
    },
    {
        "no": 124,
        "Supervisor": "Asimov Ilyarjan",
        "Project Name": "Attendance system by face recognition",
        "Category": "Hardware Control",
        "Country": "Kazakhhstan",
        "School": "Средняя школа №29, Almaty",
        "Student-1": "ILYARZHAN ASSIMOV M"
    },
    {
        "no": 125,
        "Supervisor": "Rakhat Zhakiyenov",
        "Project Name": "Compact Milling Machine",
        "Category": "Hardware Control",
        "Country": "Kazakhhstan",
        "School": "NIS PHM, Nur-Sultan",
        "Student-1": "Rakhat Zhakiyenov",
        "Student-2": "Sayat Ryskalov"
    },
    {
        "no": 126,
        "Supervisor": "Гульназ Зайкен",
        "Project Name": "Interactive e-book \"Monumental art of Karaganda\"",
        "Category": "Computer Art",
        "Country": "Kazakhhstan",
        "School": "specialized boarding school \"Daryn\", Karagandy",
        "Student-1": "Gulnaz Zaiken Rahmankyzy"
    },
    {
        "no": 127,
        "Supervisor": "Yuliya Pryanichnikova",
        "Project Name": "Enlightenment",
        "Category": "Computer Art",
        "Country": "Kazakhhstan",
        "School": "NIS of Physics and Mathematics in Taraz",
        "Student-1": "Adiya Kerimkulova"
    },
    {
        "no": 128,
        "Supervisor": "Perizat Ibrayeva",
        "Project Name": "Cartoon “BAURSAK”",
        "Category": "Computer Art",
        "Country": "Kazakhhstan",
        "School": "1, Qosshy",
        "Student-1": "Batyrbek Makhanbet",
        "Student-2": "Ansar Urynbasar Zairuly"
    },
    {
        "no": 129,
        "Supervisor": "Aisara Omirzakova",
        "Project Name": "KIL - Kazakh in immersive language ",
        "Category": "Computer Art",
        "Country": "Kazakhhstan",
        "School": "55 scondary school gymnasium, Aktobe",
        "Student-1": "Sayat Sailev Nurlanovich"
    },
    {
        "no": 130,
        "Supervisor": "Aigerim Turarbek",
        "Project Name": "The Paradise of the Earth (comics)",
        "Category": "Computer Art",
        "Country": "Kazakhhstan",
        "School": "NO 2 BILIM-INNOVATION BOARDING-LYCEUM FOR GIRLS, Shymkent",
        "Student-1": "Aigerim Turarbek Bakhytzhankyzy"
    },
    {
        "no": 131,
        "Supervisor": "Meirman Absatov",
        "Project Name": "ASA comics/Comics. 3 People 1 Coin",
        "Category": "Computer Art",
        "Country": "Kazakhhstan",
        "School": "BIL, Nur-Sultan",
        "Student-1": "Ayat Anapiya Bolatuli"
    },
    {
        "no": 132,
        "Supervisor": "Meirman Absatov",
        "Project Name": "Dream",
        "Category": "Computer Art",
        "Country": "Kazakhhstan",
        "School": "BIL, Nur-Sultan",
        "Student-1": "Adilet Abdirassil"
    },
    {
        "no": 133,
        "Supervisor": "Yerdaulet Kabdushev",
        "Project Name": "Nova Education",
        "Category": "Computer Art",
        "Country": "Kazakhhstan",
        "School": "Jambyl Innovation High College",
        "Student-1": "Bekzat Omirzak"
    },
    {
        "no": 134,
        "Supervisor": "Zhonder Suleimenova",
        "Project Name": "Life without nothing",
        "Category": "Computer Art",
        "Country": "Kazakhhstan",
        "School": "ZHBIL, Zhanaozen",
        "Student-1": "Rasul Khamidollа"
    },
    {
        "no": 135,
        "Supervisor": "Alikhan Orynbasar",
        "Project Name": "Magic Travel",
        "Category": "Computer Art",
        "Country": "Kazakhhstan",
        "School": "SDCL, Almaty",
        "Student-1": "Alikhan Orynbasar",
        "Student-2": "Abylaikhan Tursynbek",
        "Student-3": "ilnur Shamshidinov"
    },
    {
        "no": 136,
        "Supervisor": "Bakhytzhan Myktybayev",
        "Project Name": "IT-Museum(VR)",
        "Category": "Computer Art",
        "Country": "Kazakhhstan",
        "School": "Jambyl Innovation High College",
        "Student-1": "Baltabay Akimzhan",
        "Student-2": "Baitigayev Adil"
    },
    {
        "no": 137,
        "Supervisor": "Akmanet Ashenova",
        "Project Name": "Development of a computer model of traffic control",
        "Category": "Computer Art",
        "Country": "Kazakhhstan",
        "School": "159 gymnasium, Almaty",
        "Student-1": "Yermekbayev Bakdaulet",
        "Student-2": "Moldashov Zharkyn"
    },
    {
        "no": 138,
        "Supervisor": "Zhuldyz Ibrayeva",
        "Project Name": "Creating a virtual tour in Pano 2VR and Kolor Panotour Pro",
        "Category": "Computer Art",
        "Country": "Kazakhhstan",
        "School": "Specialized boarding school named after N. Nurmakov, Karagandy",
        "Student-1": "DINMUKHAMMED MAKHMUT"
    },
    {
        "no": 139,
        "Supervisor": "laiykh bakhara",
        "Project Name": "ghost",
        "Category": "Computer Art",
        "Country": "Kazakhhstan",
        "School": "Bilim-Innovation high School for gifted girls, Pavlodar",
        "Student-1": "Aniya Akkabak Armanqyzy",
        "Student-2": "Zhamilya Babayeva"
    },
    {
        "no": 140,
        "Supervisor": "Bakhytzhan Myktybayev",
        "Project Name": "Kazakh ornaments rebranding",
        "Category": "Computer Art",
        "Country": "Kazakhhstan",
        "School": "Jambyl Innovation High College",
        "Student-1": "Sunetualluly Zhalgas",
        "Student-2": "Zhienkulov Aldiyar",
        "Student-3": "Smagul Nurmuhamed"
    },
    {
        "no": 141,
        "Supervisor": "Ayperi Osmonaalieva",
        "Project Name": "The change created by humans(What Have We Done To Our Planet?)",
        "Category": "Computer Art",
        "Country": "Kyrgyzstan",
        "School": "Kurmanzhan Datka Osh Girls High School, Osh",
        "Student-1": "Aigerim Rasul kyzy",
        "Student-2": "Bermet Shanaeva Maratovna",
        "Student-3": "Merim Shamshieva Abdirashitovna"
    },
    {
        "no": 142,
        "Supervisor": "Raziya Yessembekova",
        "Project Name": "sheep & deer",
        "Category": "Computer Art",
        "Country": "Kazakhhstan",
        "School": "Taraz BIL girls, Taraz",
        "Student-1": "Raziya Yessembekova"
    },
    {
        "no": 143,
        "Supervisor": "Adil Ilesbek",
        "Project Name": "Baiterek",
        "Category": "Computer Art",
        "Country": "Kazakhhstan",
        "School": "NIS PhMD, Nur-Sultan",
        "Student-1": "Adil Ilesbek"
    },
    {
        "no": 144,
        "Supervisor": "Bakhytzhan Myktybayev",
        "Project Name": "Olketanu App",
        "Category": "Computer Art",
        "Country": "Kazakhhstan",
        "School": "Jambyl Innovation High College",
        "Student-1": "Markhabatova Dana",
        "Student-2": "Zhusipova Zhuldyz",
        "Student-3": "Yermek Nazerke"
    },
    {
        "no": 145,
        "Supervisor": "Bakhytzhan Myktybayev",
        "Project Name": "iHealth App",
        "Category": "Computer Art",
        "Country": "Kazakhhstan",
        "School": "Jambyl Innovation High College",
        "Student-1": "Rashid Zhuldyzai",
        "Student-2": "Zhumashova Aizhan"
    },
    {
        "no": 146,
        "Supervisor": "Bakhytzhan Myktybayev",
        "Project Name": "SELF-DEVELOPMENT",
        "Category": "Computer Art",
        "Country": "Kazakhhstan",
        "School": "Jambyl Innovation High College",
        "Student-1": "Yerdaliyev Yedil",
        "Student-2": "NURZHAU ORKEN"
    },
    {
        "no": 147,
        "Supervisor": "Muammer Gul",
        "Project Name": "Magic Mathematicians",
        "Category": "Mathematics",
        "Country": "Kazakhhstan",
        "School": "BIL for gifted boys, Nur-Sultan",
        "Student-1": "Daniyal Malik",
        "Student-2": "Alibek Dyussembayev",
        "Student-3": "Nurassyl Kurmangali"
    },
    {
        "no": 148,
        "Supervisor": "Muammer Gul",
        "Project Name": "On Langford Sequences and Their Applications",
        "Category": "Mathematics",
        "Country": "Kazakhhstan",
        "School": "Quantum Stem School, Nur-Sultan",
        "Student-1": "Alen Assaubayev"
    },
    {
        "no": 149,
        "Supervisor": "Muammer Gul",
        "Project Name": "FINDING OF THE INEQUALITIES BY MONOTONOUS SEQUENCES",
        "Category": "Mathematics",
        "Country": "Kazakhhstan",
        "School": "BIL for gifted boys, Nur-Sultan",
        "Student-1": "Nuraly Amankulov",
        "Student-2": "Sultanbek Baizhanov",
        "Student-3": "Miras Karaman"
    },
    {
        "no": 150,
        "Supervisor": "Muammer Gul",
        "Project Name": "New equation for comparing areas of two arbitrary quadrilaterals",
        "Category": "Mathematics",
        "Country": "Kazakhhstan",
        "School": "BIL for gifted boys, Nur-Sultan",
        "Student-1": "Nurdaulet Absattarov",
        "Student-2": "Rakhymzhan Baitureyev"
    },
    {
        "no": 151,
        "Supervisor": "Muammer Gul",
        "Project Name": "POLYMINO ON CHECKERED SURFACES",
        "Category": "Mathematics",
        "Country": "Kazakhhstan",
        "School": "BIL for gifted boys, Nur-Sultan",
        "Student-1": "Rauan Zhankuatov",
        "Student-2": "Omar Zhumabay"
    },
    {
        "no": 152,
        "Supervisor": "Muammer Gul",
        "Project Name": "THE THEORETICAL AND METHODOLOGICAL OF WRESTLING IN MATHEMATICS",
        "Category": "Mathematics",
        "Country": "Kazakhhstan",
        "School": "М.Шоқай атындағы 51 мектеп гимназия, Nur-Sultan",
        "Student-1": "Yenlik Seidaliyeva",
        "Student-2": "Imangali Asqar",
        "Student-3": "Aruzhan Konyssova"
    },
    {
        "no": 153,
        "Supervisor": "Muammer Gul",
        "Project Name": "Some Stream Encryption Methods",
        "Category": "Mathematics",
        "Country": "Kazakhhstan",
        "School": "М.Шоқай атындағы 51 мектеп гимназия, Nur-Sultan",
        "Student-1": "Malika Munasheva",
        "Student-2": "Azamat Kuandyk",
        "Student-3": "Kumar Oskenbay"
    },
    {
        "no": 154,
        "Supervisor": "Muammer Gul",
        "Project Name": "Lattice Points",
        "Category": "Mathematics",
        "Country": "Kazakhhstan",
        "School": "BIL for gifted boys, Nur-Sultan",
        "Student-1": "Altair Adilkhan Alpamysuly",
        "Student-2": "Bekzat Kuandyk",
        "Student-3": "Zhomart Zhexenbay"
    },
    {
        "no": 155,
        "Supervisor": "Kanat Karazhigitova",
        "Project Name": "Mathematical calculations of the algorithm for winning volleyball",
        "Category": "Mathematics",
        "Country": "Kazakhhstan",
        "School": "NIS of Phy. Math., Taraz",
        "Student-1": "Aruzhan Zhaksylyk"
    },
    {
        "no": 156,
        "Supervisor": "Dovran Sazakov",
        "Project Name": "GENERALIZATION of THEOREMS OF MENELAUS AND CEVA IN PLANE GEOMETRY",
        "Category": "Mathematics",
        "Country": "Turkmenistan",
        "School": "School N26 specialized in English, Chemistry and Biology, Dashoguz",
        "Student-1": "Zhumabayev Alihan",
        "Student-2": "Ahmetov Arman",
        "Student-3": "Shamedov Rovshen"
    },
    {
        "no": 157,
        "Supervisor": "Yusup Ovezov",
        "Project Name": "1_COOL THEOREM",
        "Category": "Mathematics",
        "Country": "Turkmenistan",
        "School": "Saparmurat Turkmenbashi Specialized Comprehensive Boarding School, Ashgabat",
        "Student-1": "ORAZMYRAT SAHETMYRADOV",
        "Student-2": "BATYR OVEZMYRADOV"
    },
    {
        "no": 158,
        "Supervisor": "Nurbek Almashev",
        "Project Name": "Is it even worthwhile to study mathematics?",
        "Category": "Mathematics",
        "Country": "Kazakhhstan",
        "School": "BIL, Almaty",
        "Student-1": "Alikhan Serikov",
        "Student-2": "Bagdaulet Kamalbayev",
        "Student-3": "Aibar Serik"
    },
    {
        "no": 159,
        "Supervisor": "Alexandr Kotov",
        "Project Name": "Mathematical methods of decision making",
        "Category": "Mathematics",
        "Country": "Kazakhhstan",
        "School": "IT lyceum boarding school, Taraz",
        "Student-1": "Yerzat Zhabyn",
        "Student-2": "Aruszhan Murat"
    },
    {
        "no": 160,
        "Supervisor": "Zangar Omarov",
        "Project Name": "New formulas of defining perimeter and area of right triangle",
        "Category": "Mathematics",
        "Country": "Kazakhhstan",
        "School": "Shokan Ualikhanov, Zharkent",
        "Student-1": "Arlan Batyrgali"
    },
    {
        "no": 161,
        "Supervisor": "Zhonder Suleimenova",
        "Project Name": "Lagrange Interpolation Polynomial",
        "Category": "Mathematics",
        "Country": "Kazakhhstan",
        "School": "ZHBIL, Zhanaozen",
        "Student-1": "Ernar Rahmetov"
    },
    {
        "no": 162,
        "Supervisor": "Nursaid Muhitdinov",
        "Project Name": "Nash equilibrium and its mathematical meaning",
        "Category": "Mathematics",
        "Country": "Kazakhhstan",
        "School": "Magzhan Zhumabayev 15, Turkestan",
        "Student-1": "Nursaid Muhitdinov",
        "Student-2": "Maqsat Umirzakov"
    },
    {
        "no": 163,
        "Supervisor": "Akerke Merzetkhan",
        "Project Name": "THE FORMULA FOR THE PATTERNS OF MAXIMUM AND MINIMUM AREAS FOR RECTANGLES WITH THE SAME PERIMETERS AND DIFFERENT SHAPES",
        "Category": "Mathematics",
        "Country": "Kazakhhstan",
        "School": "NIS, Nur-Sultan",
        "Student-1": "Kuralay Khamidolla",
        "Student-2": "Ulzhan Khamidolla"
    },
    {
        "no": 164,
        "Supervisor": "Kazhkenova Nazerke",
        "Project Name": "Mathematics in agriculture",
        "Category": "Mathematics",
        "Country": "Kazakhhstan",
        "School": "SBSL \"INFORMATION TECHNOLOGIES\", Karagandy",
        "Student-1": "Aluana Muslimova",
        "Student-2": "Akbota Abduova"
    }
]