﻿{
    "finalists": [
        {
          "No": 1,
          "Team name": "HealHunter",
          "Category": "AI Programming",
          "Country": "Kazakhstan",
          "Participant 1": "Gabitov Abdulaziz",
          "Participant 2": "Berdyshev Kerey",
          "Participant 3": "Mazhitov Jafar"
        },
        {
          "No": 2,
          "Team name": "TIREK",
          "Category": "AI Programming",
          "Country": "Kazakhstan",
          "Participant 1": "Seidashim Nurzhigit",
          "Participant 2": "Damir Yerdaulet",
          "Participant 3": "Artykbay Arnur"
        },
        {
          "No": 3,
          "Team name": "EduTube",
          "Category": "AI Programming",
          "Country": "Turkmenistan",
          "Participant 1": "Akynyyazov Abdyrahym",
          "Participant 2": "Esenmyradov Didar",
          "Participant 3": ""
        },
        {
          "No": 4,
          "Team name": "Disaster Vision",
          "Category": "AI Programming",
          "Country": "Kazakhstan",
          "Participant 1": "Mazhitov Jafar",
          "Participant 2": "Kossov Maksim",
          "Participant 3": "Berdyshev Kerey"
        },
        {
          "No": 5,
          "Team name": "e_care",
          "Category": "AI Programming",
          "Country": "Turkmenistan",
          "Participant 1": "Arslanov Ayhan",
          "Participant 2": "",
          "Participant 3": ""
        },
        {
          "No": 6,
          "Team name": "auction",
          "Category": "AI Programming",
          "Country": "Turkmenistan",
          "Participant 1": "Penjiyev Oraz",
          "Participant 2": "",
          "Participant 3": ""
        },
        {
          "No": 7,
          "Team name": "carvana",
          "Category": "AI Programming",
          "Country": "Turkmenistan",
          "Participant 1": "Mergenov Oguzhan",
          "Participant 2": "Gurbanmyradov Medet",
          "Participant 3": ""
        },
        {
          "No": 8,
          "Team name": "MindFree",
          "Category": "AI Programming",
          "Country": "Kazakhstan",
          "Participant 1": "Yermek Yerassyl",
          "Participant 2": "Artykbay Arnur",
          "Participant 3": "Temirkhan Zhalgas"
        },
        {
          "No": 9,
          "Team name": "Using Artificial Intelligence in Music Writing",
          "Category": "AI Programming",
          "Country": "Kazakhstan",
          "Participant 1": "Abeuov Yerassyl",
          "Participant 2": "",
          "Participant 3": ""
        },
        {
          "No": 10,
          "Team name": "Food Guard",
          "Category": "AI Programming",
          "Country": "Kazakhstan",
          "Participant 1": "Oten Ismail",
          "Participant 2": "",
          "Participant 3": ""
        },
        {
          "No": 11,
          "Team name": "SymptomAIze",
          "Category": "AI Programming",
          "Country": "Kazakhstan",
          "Participant 1": "Abzelbek Nurkeldi",
          "Participant 2": "Akim Alikhan",
          "Participant 3": "Alimbetov Issatay"
        },
        {
          "No": 12,
          "Team name": "Happyroad",
          "Category": "AI Programming",
          "Country": "Turkmenistan",
          "Participant 1": "Maksadova Chynar",
          "Participant 2": "Meredova Bibijemal",
          "Participant 3": ""
        },
        {
          "No": 13,
          "Team name": "Novalore",
          "Category": "AI Programming",
          "Country": "Turkmenistan",
          "Participant 1": "Myratlyyev Kerimberdi",
          "Participant 2": "",
          "Participant 3": ""
        },
        {
          "No": 14,
          "Team name": "ChessNotes",
          "Category": "AI Programming",
          "Country": "Kazakhstan",
          "Participant 1": "Serikkhan Sanzhar",
          "Participant 2": "",
          "Participant 3": ""
        },
        {
          "No": 15,
          "Team name": "LingoML",
          "Category": "AI Programming",
          "Country": "Kazakhstan",
          "Participant 1": "Nogayev Mansur",
          "Participant 2": "",
          "Participant 3": ""
        },
        {
          "No": 16,
          "Team name": "Topshur AI",
          "Category": "AI Programming",
          "Country": "Kazakhstan",
          "Participant 1": "Ozgeldi Dastan",
          "Participant 2": "Sandykbayev Adil",
          "Participant 3": "Jumadildayev Sagyn"
        },
        {
          "No": 17,
          "Team name": "IELTS speaker online",
          "Category": "AI Programming",
          "Country": "Kazakhstan",
          "Participant 1": "Kulfaizov Kenessary",
          "Participant 2": "Zhumagulov Aibek",
          "Participant 3": "Abdulin Yelkhan"
        },
        {
          "No": 18,
          "Team name": "Polyglot",
          "Category": "AI Programming",
          "Country": "Turkmenistan",
          "Participant 1": "Rahmedov Alihan",
          "Participant 2": "",
          "Participant 3": ""
        },
        {
          "No": 19,
          "Team name": "Smart AI that helps applicants find their perfect profession.",
          "Category": "AI Programming",
          "Country": "Kazakhstan",
          "Participant 1": "Maiya Abilmazhin",
          "Participant 2": "Dariya Shauyenova",
          "Participant 3": "Demir Amir"
        },
        {
          "No": 20,
          "Team name": "Artificial Intelligence in Medical Diagnostics: Enhancing Accuracy and Accessibility",
          "Category": "AI Programming",
          "Country": "Kazakhstan",
          "Participant 1": "Askerbayev Almas",
          "Participant 2": "OMAROVA AMINA",
          "Participant 3": "ROMANKUL ALISHER"
        },
        {
          "No": 21,
          "Team name": "AI-Powered Metahuman Assistant",
          "Category": "AI Programming",
          "Country": "Tajikistan",
          "Participant 1": "Mamadjoni Muhammad",
          "Participant 2": "Khusanov Ismoil",
          "Participant 3": "Shodiev Munirjon"
        },
        {
          "No": 22,
          "Team name": "QazNLTK",
          "Category": "AI Programming",
          "Country": "Kazakhstan",
          "Participant 1": "Saparbay Kadyr",
          "Participant 2": "Ussen Tair",
          "Participant 3": "Aktau Ayaulym"
        },
        {
          "No": 23,
          "Team name": "EXTENOVA Assistant",
          "Category": "AI Programming",
          "Country": "Kazakhstan",
          "Participant 1": "Bayadilov Omar",
          "Participant 2": "Nurmukhambet Yersain",
          "Participant 3": "Kassymbek Nur"
        },
        {
          "No": 24,
          "Team name": "Global Warn",
          "Category": "AI Programming",
          "Country": "Kazakhstan",
          "Participant 1": "Prozorov Saveliy",
          "Participant 2": "Kuanyshev Nurali",
          "Participant 3": "Moksheva Alisa"
        },
        {
          "No": 25,
          "Team name": "Mathing",
          "Category": "AI Programming",
          "Country": "Kazakhstan",
          "Participant 1": "Sandalova Alina",
          "Participant 2": "Gabdushev Nurali",
          "Participant 3": "Khamzin Daniyal"
        },
        {
          "No": 26,
          "Team name": "KazEDU",
          "Category": "AI Programming",
          "Country": "Kazakhstan",
          "Participant 1": "Zhumazhan Miras",
          "Participant 2": "",
          "Participant 3": ""
        },
        {
          "No": 27,
          "Team name": "AreaPulse AI",
          "Category": "AI Programming",
          "Country": "Kazakhstan",
          "Participant 1": "Issa Abilmansur",
          "Participant 2": "Serikov Marat",
          "Participant 3": "Zhandos Islam"
        },
        {
          "No": 28,
          "Team name": "JobFinder",
          "Category": "AI Programming",
          "Country": "Kazakhstan",
          "Participant 1": "Sabyrkhan Darkhan",
          "Participant 2": "Yeldossuly Aidos",
          "Participant 3": "Almurzin Octavian"
        },
        {
          "No": 29,
          "Team name": "Easy Arxiv",
          "Category": "AI Programming",
          "Country": "Kazakhstan",
          "Participant 1": "Aitzhanov Adilet",
          "Participant 2": "Abulgazin Temirlan",
          "Participant 3": ""
        },
        {
          "No": 30,
          "Team name": "UniScan",
          "Category": "AI Programming",
          "Country": "Kazakhstan",
          "Participant 1": "Yessenaly Miras",
          "Participant 2": "",
          "Participant 3": ""
        },
        {
          "No": 31,
          "Team name": "AI for detecting scams and sites distributing prohibited substances",
          "Category": "AI Programming",
          "Country": "Kazakhstan",
          "Participant 1": "Alshynbay Shingiz",
          "Participant 2": "Apil Nazym",
          "Participant 3": ""
        },
        {
          "No": 32,
          "Team name": "“QazSign — A real-time Kazakh Sign Language Translator”",
          "Category": "AI Programming",
          "Country": "Kazakhstan",
          "Participant 1": "TURAT NURDAULET",
          "Participant 2": "KALEL DAULET",
          "Participant 3": "MAITAN ASSYLALI"
        },
        {
          "No": 33,
          "Team name": "Non-invasive blood glucometer based on AI Software on Android",
          "Category": "AI Programming",
          "Country": "Kazakhstan",
          "Participant 1": "TOKMURZIYEVA BANU",
          "Participant 2": "DANIYAR AKDAULETOV",
          "Participant 3": "BITOREKYZY YERKEZHAN"
        },
        {
          "No": 34,
          "Team name": "Math Eggventure",
          "Category": "AI Programming",
          "Country": "Kazakhstan",
          "Participant 1": "SARIYEV Alan",
          "Participant 2": "",
          "Participant 3": ""
        },
        {
          "No": 35,
          "Team name": "XPP (Exam Preparation Platform)",
          "Category": "AI Programming",
          "Country": "Kazakhstan",
          "Participant 1": "BAKHYTZHAN ASSAN",
          "Participant 2": "ASKARBEK DANIYAL",
          "Participant 3": "SOVET DANIAL"
        },
        {
          "No": 36,
          "Team name": "Scriptum",
          "Category": "AI Programming",
          "Country": "Kazakhstan",
          "Participant 1": "Muratova Aidana",
          "Participant 2": "",
          "Participant 3": ""
        },
        {
          "No": 37,
          "Team name": "AI Farabi",
          "Category": "AI Programming",
          "Country": "Kazakhstan",
          "Participant 1": "Shohruh Rustamov",
          "Participant 2": "Yernasip Duisebay",
          "Participant 3": ""
        },
        {
          "No": 38,
          "Team name": "Smart Traffic Management System",
          "Category": "AI Programming",
          "Country": "Mongolia",
          "Participant 1": "Lhagvadash Enkhjin",
          "Participant 2": "Myagmarsuren Tuguldur",
          "Participant 3": "Davaanyam Chinguun"
        },
        {
          "No": 39,
          "Team name": "AI-Powered Eye-Cursor Control using Python and OpenCV",
          "Category": "AI Programming",
          "Country": "Mongolia",
          "Participant 1": "Otgonbayar Turbayar",
          "Participant 2": "Enkhtur Sod-Erdene",
          "Participant 3": "Gantulga Munkh-Itgel"
        },
        {
          "No": 40,
          "Team name": "Teaching C++",
          "Category": "AI Programming",
          "Country": "Malawi",
          "Participant 1": "Ali Tutla Zunaid Miguel",
          "Participant 2": "Mumba Chisomo Uchizi",
          "Participant 3": "Mia Sayf Al Islam"
        },
        {
          "No": 41,
          "Team name": "Control 3D sound master",
          "Category": "AI Programming",
          "Country": "Malawi",
          "Participant 1": "Chimdima Chawanangwa",
          "Participant 2": "Muona Grace",
          "Participant 3": "BAKOLO MWAIWATHU"
        },
        {
          "No": 42,
          "Team name": "Uly dala zholy",
          "Category": "AI Programming",
          "Country": "Kazakhstan",
          "Participant 1": "Madi Bolatov",
          "Participant 2": "Khamitkhanova Ayaulym",
          "Participant 3": "Akhmetzhanov Alemzhan"
        },
        {
          "No": 1,
          "Team name": "AI Hackathon",
          "Category": "AI Hackathon",
          "Country": "Kazakhstan",
          "Participant 1": "Zholdybay Ibragim",
          "Participant 2": "Mambetaly Sultanbeibarys",
          "Participant 3": "Zhalgasbay Adil"
        },
        {
          "No": 2,
          "Team name": "Qala",
          "Category": "AI Hackathon",
          "Country": "Kazakhstan",
          "Participant 1": "Sailanbay Akylzhan",
          "Participant 2": "Saryyev Sanzhar",
          "Participant 3": "Tumash Adil"
        },
        {
          "No": 3,
          "Team name": "FindACompany",
          "Category": "AI Hackathon",
          "Country": "Kazakhstan",
          "Participant 1": "Yerdenov Batyr",
          "Participant 2": "Mukhadil Karim",
          "Participant 3": "Zhumadilda Daniyar"
        },
        {
          "No": 4,
          "Team name": "EQUILIBRI.AI",
          "Category": "AI Hackathon",
          "Country": "Kazakhstan",
          "Participant 1": "Slambekov Kamil",
          "Participant 2": "Altaeva Dilnaz",
          "Participant 3": "Tileu Aiken"
        },
        {
          "No": 5,
          "Team name": "AI Hackathon",
          "Category": "AI Hackathon",
          "Country": "Kazakhstan",
          "Participant 1": "Rahmatullin Assylzhan",
          "Participant 2": "",
          "Participant 3": ""
        },
        {
          "No": 6,
          "Team name": "Recipe Share",
          "Category": "AI Hackathon",
          "Country": "Kazakhstan",
          "Participant 1": "Akhmetzhanov Alemzhan",
          "Participant 2": "Sadriyev Zhansar",
          "Participant 3": ""
        },
        {
          "No": 7,
          "Team name": "AI HACKATHON",
          "Category": "AI Hackathon",
          "Country": "Kazakhstan",
          "Participant 1": "Khaber Akhmad",
          "Participant 2": "Berikuly Nurislam",
          "Participant 3": "Kulzhan Nurzhan"
        },
        {
          "No": 8,
          "Team name": "Jinaq",
          "Category": "AI Hackathon",
          "Country": "Kazakhstan",
          "Participant 1": "Vakhit Alazim",
          "Participant 2": "Serikov Alibek",
          "Participant 3": "SAGYNGALI ARSLAN"
        },
        {
          "No": 9,
          "Team name": "AI Hackathon",
          "Category": "AI Hackathon",
          "Country": "Kazakhstan",
          "Participant 1": "Kuanyshbek Nurislam",
          "Participant 2": "Abenov Chingiz",
          "Participant 3": "Kuan Arsen"
        },
        {
          "No": 10,
          "Team name": "Qoldas",
          "Category": "AI Hackathon",
          "Country": "Kazakhstan",
          "Participant 1": "Muratuly Yeldar",
          "Participant 2": "Amirali Amir",
          "Participant 3": ""
        },
        {
          "No": 11,
          "Team name": "Pomogator",
          "Category": "AI Hackathon",
          "Country": "Kazakhstan",
          "Participant 1": "Tokhtarkhan Ilyas",
          "Participant 2": "Yertaiuly Yelarys",
          "Participant 3": ""
        },
        {
          "No": 12,
          "Team name": "Project",
          "Category": "AI Hackathon",
          "Country": "Kazakhstan",
          "Participant 1": "Khamzin Alikhan",
          "Participant 2": "Moldiyar Abai",
          "Participant 3": ""
        },
        {
          "No": 13,
          "Team name": "ASpan",
          "Category": "AI Hackathon",
          "Country": "Kazakhstan",
          "Participant 1": "Shomanov Asanali",
          "Participant 2": "Мирман Исатай Шолтырұлы",
          "Participant 3": ""
        },
        {
          "No": 14,
          "Team name": "Second Brain",
          "Category": "AI Hackathon",
          "Country": "Kazakhstan",
          "Participant 1": "Karabek Ayazhan",
          "Participant 2": "Tungushbayev Insar",
          "Participant 3": "Sharel Margulan"
        },
        {
          "No": 1,
          "Team name": "Silent Talk",
          "Category": "Hardware Control",
          "Country": "Kazakhstan",
          "Participant 1": "Rishat Dilshat",
          "Participant 2": "",
          "Participant 3": ""
        },
        {
          "No": 2,
          "Team name": "GT INNOVATORS",
          "Category": "Hardware Control",
          "Country": "Kazakhstan",
          "Participant 1": "Moldakerimov Akniyet",
          "Participant 2": "Kadylbek Serzhan",
          "Participant 3": ""
        },
        {
          "No": 3,
          "Team name": "GREENLEGEND",
          "Category": "Hardware Control",
          "Country": "Kazakhstan",
          "Participant 1": "KURMANBAYEVA INKAR",
          "Participant 2": "ALIYEVA AYAULYM",
          "Participant 3": "BAUYRZHANKYZY AIYM"
        },
        {
          "No": 4,
          "Team name": "Development of an autonoumous farm",
          "Category": "Hardware Control",
          "Country": "Kazakhstan",
          "Participant 1": "Zholzhibek Aisha",
          "Participant 2": "Amirkozha Adina",
          "Participant 3": ""
        },
        {
          "No": 5,
          "Team name": "Innovative Smart Watch and Trainer: Health Monitoring and Emergency Assistance via Application",
          "Category": "Hardware Control",
          "Country": "Kazakhstan",
          "Participant 1": "Kumkay Anel",
          "Participant 2": "Isabek Dulat",
          "Participant 3": "Seit Nursat"
        },
        {
          "No": 6,
          "Team name": "Vision Assistant",
          "Category": "Hardware Control",
          "Country": "Kazakhstan",
          "Participant 1": "Omirbek Rakhat",
          "Participant 2": "",
          "Participant 3": ""
        },
        {
          "No": 7,
          "Team name": "BioMend",
          "Category": "Hardware Control",
          "Country": "Kazakhstan",
          "Participant 1": "Temirlan Batyrov",
          "Participant 2": "Baibarys Sultangazy",
          "Participant 3": ""
        },
        {
          "No": 8,
          "Team name": "Úmit",
          "Category": "Hardware Control",
          "Country": "Kazakhstan",
          "Participant 1": "Tazhikhan Kanat",
          "Participant 2": "Zhazykbay Ali",
          "Participant 3": "Tazhikhan Madi"
        },
        {
          "No": 9,
          "Team name": "Waste Sorting Machine \"Tazalyq",
          "Category": "Hardware Control",
          "Country": "Kazakhstan",
          "Participant 1": "Zinullin Nursultan",
          "Participant 2": "Otepkali Makhambet",
          "Participant 3": "Yergen Adil"
        },
        {
          "No": 10,
          "Team name": "ECO Dabyl",
          "Category": "Hardware Control",
          "Country": "Kazakhstan",
          "Participant 1": "Turganbay Raushan",
          "Participant 2": "Ashirmet Arailym",
          "Participant 3": "Myrzaкhan Yelaman"
        },
        {
          "No": 11,
          "Team name": "RauSat Mk-2",
          "Category": "Hardware Control",
          "Country": "Kazakhstan",
          "Participant 1": "Turganbay Raushan",
          "Participant 2": "Atymtay Nadira",
          "Participant 3": "Saktapbergen Dara"
        },
        {
          "No": 12,
          "Team name": "Aero Cleanser",
          "Category": "Hardware Control",
          "Country": "Kyrgyzstan",
          "Participant 1": "Tolkunbek uulu Nursultan",
          "Participant 2": "Kurmanbekov Matai",
          "Participant 3": "Zhumabaev Azamat"
        },
        {
          "No": 13,
          "Team name": "InnovWheelChair",
          "Category": "Hardware Control",
          "Country": "Kazakhstan",
          "Participant 1": "Tursyn Gaziz",
          "Participant 2": "",
          "Participant 3": ""
        },
        {
          "No": 14,
          "Team name": "HydroEcoCleaner",
          "Category": "Hardware Control",
          "Country": "Kyrgyzstan",
          "Participant 1": "CHAKRABORTY AKSHAY",
          "Participant 2": "NORONHA NOLAN",
          "Participant 3": ""
        },
        {
          "No": 15,
          "Team name": "Design and Implementation of an AI-Controlled Smart Home",
          "Category": "Hardware Control",
          "Country": "Tajikistan",
          "Participant 1": "Nadyrbekov Zalkar",
          "Participant 2": "Raimbekov Ihsan",
          "Participant 3": "Azemkulov Temirlan"
        },
        {
          "No": 16,
          "Team name": "Automated Outrigger System",
          "Category": "Hardware Control",
          "Country": "Uganda",
          "Participant 1": "Jumaev Ahadjon",
          "Participant 2": "Sultonov Abduaziz",
          "Participant 3": "Yusupov Yusufjon"
        },
        {
          "No": 17,
          "Team name": "Fire Destroyer Robot",
          "Category": "Hardware Control",
          "Country": "Kazakhstan",
          "Participant 1": "Boranbay Temirlan",
          "Participant 2": "Madiyaruly Nurdaulet",
          "Participant 3": "Tolebay Alinur"
        },
        {
          "No": 18,
          "Team name": "TheraGlove",
          "Category": "Hardware Control",
          "Country": "Kyrgyzstan",
          "Participant 1": "SERIKZHANULY YERASSYL",
          "Participant 2": "Askarov Ali",
          "Participant 3": "Lelin Olexander"
        },
        {
          "No": 19,
          "Team name": "Automation of Vibration Testing",
          "Category": "Hardware Control",
          "Country": "Kazakhstan",
          "Participant 1": "Seidakhmetov Dias",
          "Participant 2": "Adikhanov Najmudin",
          "Participant 3": ""
        },
        {
          "No": 20,
          "Team name": "EcoWave",
          "Category": "Hardware Control",
          "Country": "Kazakhstan",
          "Participant 1": "Almukhanov Magzhan",
          "Participant 2": "Tankibayev Zhantore",
          "Participant 3": "Zhetkergen Diyar"
        },
        {
          "No": 21,
          "Team name": "Terra",
          "Category": "Hardware Control",
          "Country": "Kazakhstan",
          "Participant 1": "Azieva Asiya",
          "Participant 2": "Tleukhan Aidana",
          "Participant 3": "Tektigulova Korkem"
        },
        {
          "No": 22,
          "Team name": "Underwater robot",
          "Category": "Hardware Control",
          "Country": "Kazakhstan",
          "Participant 1": "Mussagali Musskhan",
          "Participant 2": "Aibolat Zhumakulov",
          "Participant 3": ""
        },
        {
          "No": 23,
          "Team name": "Smart Footwear for Energy Generation and Child Safety",
          "Category": "Hardware Control",
          "Country": "Kazakhstan",
          "Participant 1": "Kussaiyn Azbike",
          "Participant 2": "",
          "Participant 3": ""
        },
        {
          "No": 24,
          "Team name": "EcoBaqşy",
          "Category": "Hardware Control",
          "Country": "Kazakhstan",
          "Participant 1": "Yeszhanuly Alkhan",
          "Participant 2": "Karassavidi Konstantin",
          "Participant 3": ""
        },
        {
          "No": 25,
          "Team name": "KokysGet",
          "Category": "Hardware Control",
          "Country": "Kazakhstan",
          "Participant 1": "Asyl Omirzak",
          "Participant 2": "",
          "Participant 3": ""
        },
        {
          "No": 26,
          "Team name": "Forest Fire Alarm System",
          "Category": "Hardware Control",
          "Country": "Kazakhstan",
          "Participant 1": "Ilyassov Arnur",
          "Participant 2": "Yerikuly Yeskendir",
          "Participant 3": "Assylbek Mukhamed"
        },
        {
          "No": 27,
          "Team name": "QAgro",
          "Category": "Hardware Control",
          "Country": "Kazakhstan",
          "Participant 1": "Alken Serikbek",
          "Participant 2": "Omar Baizak",
          "Participant 3": "Kardjaubay Adil"
        },
        {
          "No": 28,
          "Team name": "SAQTA",
          "Category": "Hardware Control",
          "Country": "Kazakhstan",
          "Participant 1": "Orynbay Alisher Niyaz",
          "Participant 2": "Seitov Maulet",
          "Participant 3": ""
        },
        {
          "No": 29,
          "Team name": "A.C.T.I.V.E.",
          "Category": "Hardware Control",
          "Country": "Kazakhstan",
          "Participant 1": "Faizulla Targyn",
          "Participant 2": "Dusaliev Ansar",
          "Participant 3": "Dauletbek Alim"
        },
        {
          "No": 1,
          "Team name": "Planning the Road Network of Kazakhstan Using Physarum polycephalum",
          "Category": "Applied Science Projects",
          "Country": "Kazakhstan",
          "Participant 1": "Sakiyev Timur",
          "Participant 2": "",
          "Participant 3": ""
        },
        {
          "No": 2,
          "Team name": "Functional equations in the class of polynomials with real coefficients",
          "Category": "Applied Science Projects",
          "Country": "Kazakhstan",
          "Participant 1": "Karazhigitova Amina",
          "Participant 2": "Birlikbay Nurali",
          "Participant 3": "Sabitova Ayaulym"
        },
        {
          "No": 3,
          "Team name": "Car parking made hard",
          "Category": "Applied Science Projects",
          "Country": "Kazakhstan",
          "Participant 1": "Gul Harun Arda",
          "Participant 2": "",
          "Participant 3": ""
        },
        {
          "No": 4,
          "Team name": "«Mathematical and computer modeling of mechanical processes»",
          "Category": "Applied Science Projects",
          "Country": "Kazakhstan",
          "Participant 1": "Sarbassov Imangali",
          "Participant 2": "Smagul Nurdaulet",
          "Participant 3": ""
        },
        {
          "No": 5,
          "Team name": "VR CHEMISTRY LABORATORY “Chemistry Laborant”",
          "Category": "Applied Science Projects",
          "Country": "Kazakhstan",
          "Participant 1": "Myrzabekov Askhat",
          "Participant 2": "Murat Ismail",
          "Participant 3": ""
        },
        {
          "No": 6,
          "Team name": "Rapid Diagnosis of Breast Cancer Biomarkers: Combining LFA (Lateral Flow Assay) and RT-PCR technology.",
          "Category": "Applied Science Projects",
          "Country": "Kazakhstan",
          "Participant 1": "Ilshatrozy Akhmulayev",
          "Participant 2": "",
          "Participant 3": ""
        },
        {
          "No": 7,
          "Team name": "Electricity Generation from Speed Bumps",
          "Category": "Applied Science Projects",
          "Country": "Kazakhstan",
          "Participant 1": "Absadykova Adina",
          "Participant 2": "Ayazbay Arailym",
          "Participant 3": ""
        },
        {
          "No": 8,
          "Team name": "Crop Yield Prediction Tool",
          "Category": "Applied Science Projects",
          "Country": "Uzbekistan",
          "Participant 1": "Pardayev Mirjalol",
          "Participant 2": "Umarov Sharofiddin",
          "Participant 3": ""
        },
        {
          "No": 9,
          "Team name": "Novel Genetic Algorithm for Graph Bandwidth Optimization",
          "Category": "Applied Science Projects",
          "Country": "Kazakhstan",
          "Participant 1": "Turarbek Ersultan",
          "Participant 2": "",
          "Participant 3": ""
        },
        {
          "No": 10,
          "Team name": "From Waste to Wonder Transforming Watermelon Rinds into a Delicious Culinary Delight",
          "Category": "Applied Science Projects",
          "Country": "Turkmenistan",
          "Participant 1": "Akmyradov Chary",
          "Participant 2": "Akmyradova Mahri",
          "Participant 3": ""
        },
        {
          "No": 11,
          "Team name": "LasDAT",
          "Category": "Applied Science Projects",
          "Country": "Kazakhstan",
          "Participant 1": "Aidarbek Erasyl",
          "Participant 2": "Bolatkyzy Gulim",
          "Participant 3": "Turganbay Raushan"
        },
        {
          "No": 12,
          "Team name": "ReMotion",
          "Category": "Applied Science Projects",
          "Country": "Kazakhstan",
          "Participant 1": "Zhanturin Adilkhan",
          "Participant 2": "Torebek Ayazhan",
          "Participant 3": "Ashirmet Arailym"
        },
        {
          "No": 13,
          "Team name": "Autonomus water quality monitoring station",
          "Category": "Applied Science Projects",
          "Country": "Kazakhstan",
          "Participant 1": "Tuleuov Akhan",
          "Participant 2": "Oraz Aslan",
          "Participant 3": "Bekturganov Marcel"
        },
        {
          "No": 14,
          "Team name": "Study on movement of particles in several states",
          "Category": "Applied Science Projects",
          "Country": "Kazakhstan",
          "Participant 1": "RAKHIMOVA KHADIYA",
          "Participant 2": "Kanat Alina",
          "Participant 3": "Dildakhan Dariga"
        },
        {
          "No": 15,
          "Team name": "AquaAeris",
          "Category": "Applied Science Projects",
          "Country": "Kazakhstan",
          "Participant 1": "Berkin Nurymkhan",
          "Participant 2": "Uashev Tair",
          "Participant 3": "Bulekbayev Alikhan"
        },
        {
          "No": 16,
          "Team name": "Med-Stretcher",
          "Category": "Applied Science Projects",
          "Country": "Kazakhstan",
          "Participant 1": "Mukhambetiya Aruzhan",
          "Participant 2": "Myssabaeva Aknur",
          "Participant 3": ""
        },
        {
          "No": 17,
          "Team name": "Hydrogen power plants",
          "Category": "Applied Science Projects",
          "Country": "Kazakhstan",
          "Participant 1": "Kamidolda Miras",
          "Participant 2": "Anuaruly Alim",
          "Participant 3": "Bergaliyev Sultan"
        },
        {
          "No": 18,
          "Team name": "QazaqSmartEcoFarm",
          "Category": "Applied Science Projects",
          "Country": "Kazakhstan",
          "Participant 1": "Artykbay Arnur",
          "Participant 2": "Yermek Yerassyl",
          "Participant 3": "Temirkhan Zhalgas"
        },
        {
          "No": 19,
          "Team name": "TilQural web-platform for speech therapy",
          "Category": "Applied Science Projects",
          "Country": "Kazakhstan",
          "Participant 1": "Abubakirova Akzhan",
          "Participant 2": "Mursal Mereke",
          "Participant 3": ""
        },
        {
          "No": 20,
          "Team name": "Improved Airbag",
          "Category": "Applied Science Projects",
          "Country": "Kazakhstan",
          "Participant 1": "Kanat Ramazan",
          "Participant 2": "",
          "Participant 3": ""
        },
        {
          "No": 21,
          "Team name": "AUTOMATED GREENHOUSE FOR SILKWORM CULTIVATION",
          "Category": "Applied Science Projects",
          "Country": "Turkmenistan",
          "Participant 1": "AKMYRADOV HAJY",
          "Participant 2": "NURYAGDYYEV DOVLETMYRAT",
          "Participant 3": "KAKAMYRADOV MYRAT"
        },
        {
          "No": 22,
          "Team name": "Easy proof of sum and difference formulas",
          "Category": "Applied Science Projects",
          "Country": "Turkmenistan",
          "Participant 1": "Mahmudov Mahmyt",
          "Participant 2": "Durdyyev Bayram",
          "Participant 3": ""
        },
        {
          "No": 23,
          "Team name": "Geographical Analysis of the Accessibility of Social Facilities in the City",
          "Category": "Applied Science Projects",
          "Country": "Kazakhstan",
          "Participant 1": "Marat Medina",
          "Participant 2": "Kazhiakhmetova Yerkenaz",
          "Participant 3": ""
        },
        {
          "No": 24,
          "Team name": "Production of bioplastics through biodegradable polymers",
          "Category": "Applied Science Projects",
          "Country": "Kazakhstan",
          "Participant 1": "Omirzhan Aiganym",
          "Participant 2": "",
          "Participant 3": ""
        },
        {
          "No": 25,
          "Team name": "USE OF ALTERNATIVE ENERGY SOURCES (ECO-TWIN TOWERS)",
          "Category": "Applied Science Projects",
          "Country": "Uganda",
          "Participant 1": "WODULO ZOE KAYEGI LAKER",
          "Participant 2": "Muhurto Muhaiminul Gul",
          "Participant 3": ""
        },
        {
          "No": 26,
          "Team name": "Using Statistical Methods to Detect Possible Election Fraud.",
          "Category": "Applied Science Projects",
          "Country": "Kazakhstan",
          "Participant 1": "Serikbek Assanali",
          "Participant 2": "Baimagambet Arman",
          "Participant 3": ""
        },
        {
          "No": 27,
          "Team name": "Underwater farm",
          "Category": "Applied Science Projects",
          "Country": "Kazakhstan",
          "Participant 1": "Yeginbay Aqerke",
          "Participant 2": "Kadralinova Amina",
          "Participant 3": "Shortaeva Asylzhan"
        },
        {
          "No": 28,
          "Team name": "Solar Collector for Heating an Energy-Efficient Eco House",
          "Category": "Applied Science Projects",
          "Country": "Kazakhstan",
          "Participant 1": "POPOVA MARIYA",
          "Participant 2": "DYUSSYUPOV ALISHER",
          "Participant 3": ""
        },
        {
          "No": 29,
          "Team name": "NurAxis",
          "Category": "Applied Science Projects",
          "Country": "Kazakhstan",
          "Participant 1": "Khamidolla Nurakhmet",
          "Participant 2": "Khamidolla Ulzhan",
          "Participant 3": ""
        },
        {
          "No": 30,
          "Team name": "HelixGen",
          "Category": "Applied Science Projects",
          "Country": "Kazakhstan",
          "Participant 1": "Gabdushev Nurali",
          "Participant 2": "Muratbek Bekarys",
          "Participant 3": ""
        },
        {
          "No": 31,
          "Team name": "LumiFlow",
          "Category": "Applied Science Projects",
          "Country": "Kazakhstan",
          "Participant 1": "Toleubayev Yerassyl",
          "Participant 2": "Toleubayev Nurassyl",
          "Participant 3": "Ismailov Dastan"
        },
        {
          "No": 32,
          "Team name": "FilterAirN",
          "Category": "Applied Science Projects",
          "Country": "Kazakhstan",
          "Participant 1": "Oral Arailym",
          "Participant 2": "Bakytbek Yelzada",
          "Participant 3": ""
        },
        {
          "No": 33,
          "Team name": "Oxyde",
          "Category": "Applied Science Projects",
          "Country": "Kazakhstan",
          "Participant 1": "Aubakir Arman",
          "Participant 2": "",
          "Participant 3": ""
        },
        {
          "No": 34,
          "Team name": "Inhibitory effect of licorice extract on the Halorubrum sp.",
          "Category": "Applied Science Projects",
          "Country": "Kazakhstan",
          "Participant 1": "Abdula Madina",
          "Participant 2": "Akimzhanov Alisher",
          "Participant 3": "Akimzhanov Madiyar"
        },
        {
          "No": 35,
          "Team name": "BioCreators",
          "Category": "Applied Science Projects",
          "Country": "Kazakhstan",
          "Participant 1": "Zheksen Gulbakyt",
          "Participant 2": "Manay Dariya",
          "Participant 3": ""
        },
        {
          "No": 36,
          "Team name": "OilGuard",
          "Category": "Applied Science Projects",
          "Country": "Kazakhstan",
          "Participant 1": "Erkinali Aida",
          "Participant 2": "Marat Alina",
          "Participant 3": ""
        },
        {
          "No": 37,
          "Team name": "TG-PhotoBioReactor",
          "Category": "Applied Science Projects",
          "Country": "Kazakhstan",
          "Participant 1": "Adikhanov Najmudin",
          "Participant 2": "Chistyakov Semyon",
          "Participant 3": ""
        },
        {
          "No": 38,
          "Team name": "Mobile air purification system",
          "Category": "Applied Science Projects",
          "Country": "Kazakhstan",
          "Participant 1": "Mardanov Magzhan",
          "Participant 2": "",
          "Participant 3": ""
        },
        {
          "No": 39,
          "Team name": "Metal-organic framework-based needle-trap devices",
          "Category": "Applied Science Projects",
          "Country": "Kazakhstan",
          "Participant 1": "Aldebekov Adiskhan",
          "Participant 2": "Kogay Elina",
          "Participant 3": "Yakovleva Kristina"
        },
        {
          "No": 40,
          "Team name": "Comparative Genomic Analysis of Cetaceans: Tracing Evolutionary Mechanisms for Novel Cancer Therapies",
          "Category": "Applied Science Projects",
          "Country": "Kazakhstan",
          "Participant 1": "Tutayeva Mariam",
          "Participant 2": "Lesbek Aru",
          "Participant 3": ""
        },
        {
          "No": 41,
          "Team name": "Lactate dehydrogenase (LDH) as a biomarker for detection of recurrence in a breast cancer",
          "Category": "Applied Science Projects",
          "Country": "Kazakhstan",
          "Participant 1": "Tutayeva Mariam",
          "Participant 2": "Lesbek Aru",
          "Participant 3": ""
        },
        {
          "No": 42,
          "Team name": "Functions of total distance",
          "Category": "Applied Science Projects",
          "Country": "Kazakhstan",
          "Participant 1": "Sabitova Ayaulym",
          "Participant 2": "",
          "Participant 3": ""
        },
        {
          "No": 1,
          "Team name": "Serene Solitude",
          "Category": "Computer Graphics and Art",
          "Country": "Tajikistan",
          "Participant 1": "Mukhamadieva Latifa",
          "Participant 2": "Khonnazarzoda Anis",
          "Participant 3": ""
        },
        {
          "No": 2,
          "Team name": "Lazy Chirstmas",
          "Category": "Computer Graphics and Art",
          "Country": "Hong Kong",
          "Participant 1": "Fang Yiu Him",
          "Participant 2": "Cheng Kai Kwong",
          "Participant 3": ""
        },
        {
          "No": 3,
          "Team name": "The Candy Tree",
          "Category": "Computer Graphics and Art",
          "Country": "Hong Kong",
          "Participant 1": "Tam Hong Ting",
          "Participant 2": "Leung Hoi Ting",
          "Participant 3": "Chan Cheuk Yiu"
        },
        {
          "No": 4,
          "Team name": "Girl With Bass Dream",
          "Category": "Computer Graphics and Art",
          "Country": "Hong Kong",
          "Participant 1": "Chan Hill Yee",
          "Participant 2": "",
          "Participant 3": ""
        },
        {
          "No": 5,
          "Team name": "The Titan And The Dwarfs",
          "Category": "Computer Graphics and Art",
          "Country": "Hong Kong",
          "Participant 1": "Lo Sing Yu",
          "Participant 2": "Ho Kwok Wai",
          "Participant 3": ""
        },
        {
          "No": 6,
          "Team name": "Wishing Fountain",
          "Category": "Computer Graphics and Art",
          "Country": "Hong Kong",
          "Participant 1": "Lau Yu Hin",
          "Participant 2": "Cao Lok Hei Hayden",
          "Participant 3": ""
        },
        {
          "No": 7,
          "Team name": "Wing",
          "Category": "Computer Graphics and Art",
          "Country": "Hong Kong",
          "Participant 1": "Lau Wing Yuk",
          "Participant 2": "Lau Megan",
          "Participant 3": "Tse CheukYin"
        },
        {
          "No": 8,
          "Team name": "3D Kepler Conjecture",
          "Category": "Computer Graphics and Art",
          "Country": "Kazakhstan",
          "Participant 1": "Palayeva Diana",
          "Participant 2": "Jumabayev Alan",
          "Participant 3": "Jumabayev David"
        },
        {
          "No": 9,
          "Team name": "Creation of an interactive animation book based on a Kazakh fairy tale",
          "Category": "Computer Graphics and Art",
          "Country": "Kazakhstan",
          "Participant 1": "Kim Robert",
          "Participant 2": "Mukanova Adema",
          "Participant 3": ""
        },
        {
          "No": 10,
          "Team name": "LOOK BACK",
          "Category": "Computer Graphics and Art",
          "Country": "Kazakhstan",
          "Participant 1": "Satybaldina Anel",
          "Participant 2": "Serikbaeva Tilektes",
          "Participant 3": "Kuanysh Mukhammedzhan"
        },
        {
          "No": 11,
          "Team name": "Innovative robot for cleaning water surfaces - Aquahero",
          "Category": "Computer Graphics and Art",
          "Country": "Kazakhstan",
          "Participant 1": "Abdikaiym Gulzhauhar",
          "Participant 2": "NAMETOVA AZHAR",
          "Participant 3": ""
        },
        {
          "No": 12,
          "Team name": "Its My Ancestor",
          "Category": "Computer Graphics and Art",
          "Country": "Kazakhstan",
          "Participant 1": "Karzovboj Daryn",
          "Participant 2": "",
          "Participant 3": ""
        },
        {
          "No": 13,
          "Team name": "A Lonely Rose Among the Stars",
          "Category": "Computer Graphics and Art",
          "Country": "Tajikistan",
          "Participant 1": "Pularova Amina",
          "Participant 2": "",
          "Participant 3": ""
        },
        {
          "No": 14,
          "Team name": "Tomiris",
          "Category": "Computer Graphics and Art",
          "Country": "Kazakhstan",
          "Participant 1": "Seifullina Yasmin",
          "Participant 2": "",
          "Participant 3": ""
        },
        {
          "No": 15,
          "Team name": "Digital Addiction",
          "Category": "Computer Graphics and Art",
          "Country": "Kazakhstan",
          "Participant 1": "Jandarbek Janelle",
          "Participant 2": "",
          "Participant 3": ""
        },
        {
          "No": 16,
          "Team name": "Representation of Nomad Kazakh Culture",
          "Category": "Computer Graphics and Art",
          "Country": "Kazakhstan",
          "Participant 1": "Zhanispayev Dauren",
          "Participant 2": "Sarybekov Damir",
          "Participant 3": "Sharipov Alisher"
        },
        {
          "No": 17,
          "Team name": "Journey to the past",
          "Category": "Computer Graphics and Art",
          "Country": "Kazakhstan",
          "Participant 1": "Nurlybek Abylai",
          "Participant 2": "",
          "Participant 3": ""
        },
        {
          "No": 18,
          "Team name": "Legacy",
          "Category": "Computer Graphics and Art",
          "Country": "Kazakhstan",
          "Participant 1": "Turlybek Yerakhmet",
          "Participant 2": "Latif Emil",
          "Participant 3": "Zeinegali Merey"
        },
        {
          "No": 19,
          "Team name": "Kazakh Hunter",
          "Category": "Computer Graphics and Art",
          "Country": "Kazakhstan",
          "Participant 1": "Aitzhanov Adilet",
          "Participant 2": "",
          "Participant 3": ""
        },
        {
          "No": 20,
          "Team name": "The Silent Ballet",
          "Category": "Computer Graphics and Art",
          "Country": "Kazakhstan",
          "Participant 1": "Mukhtarbek Nurai",
          "Participant 2": "Maksat Ayaulum",
          "Participant 3": "Ongtalap Yenglik"
        },
        {
          "No": 21,
          "Team name": "«INK OF DIGITAL MEMORIES: SCHOOL 2017» COMIC BOOK",
          "Category": "Computer Graphics and Art",
          "Country": "Kazakhstan",
          "Participant 1": "KAIROV SANZHAR",
          "Participant 2": "SMAILOVA ALBINA",
          "Participant 3": "ZHUSUPOVA GALIYA"
        },
        {
          "No": 22,
          "Team name": "«Maniac’s Lair» 3D GAME",
          "Category": "Computer Graphics and Art",
          "Country": "Kazakhstan",
          "Participant 1": "ILYASOV AMIR",
          "Participant 2": "SAGNAYEV ASLAN",
          "Participant 3": "AHMET AZIZA"
        },
        {
          "No": 23,
          "Team name": "Sardar",
          "Category": "Computer Graphics and Art",
          "Country": "Kazakhstan",
          "Participant 1": "Azan Yesbol",
          "Participant 2": "Tileu Yersultan",
          "Participant 3": "Oren Zharkynbek"
        },
        {
          "No": 24,
          "Team name": "QAZAQ QAHARMANDARY",
          "Category": "Computer Graphics and Art",
          "Country": "Kazakhstan",
          "Participant 1": "Balgabekov Yerkebulan",
          "Participant 2": "Oglan Zhanserik",
          "Participant 3": ""
        },
        {
          "No": 25,
          "Team name": "The echo within",
          "Category": "Computer Graphics and Art",
          "Country": "Mongolia",
          "Participant 1": "Bayarkhuu Amarjargal",
          "Participant 2": "",
          "Participant 3": ""
        },
        {
          "No": 1,
          "Team name": "UMIT",
          "Category": "Short Movie",
          "Country": "Kazakhstan",
          "Participant 1": "Tynyshbay Nurassyl",
          "Participant 2": "Zhumabekov Adilet",
          "Participant 3": "Sarmurzin Tamirlan"
        },
        {
          "No": 2,
          "Team name": "A fate-changing chance",
          "Category": "Short Movie",
          "Country": "Kazakhstan",
          "Participant 1": "Issatayev Alisher",
          "Participant 2": "",
          "Participant 3": ""
        },
        {
          "No": 3,
          "Team name": "Fatal Outcome",
          "Category": "Short Movie",
          "Country": "Kazakhstan",
          "Participant 1": "Yerkin Tair",
          "Participant 2": "Bakytzhan Dosmukhammed",
          "Participant 3": "Bolatbek Nurgisa"
        },
        {
          "No": 4,
          "Team name": "Addiction\" Short Movie",
          "Category": "Short Movie",
          "Country": "Kazakhstan",
          "Participant 1": "Tauan Sanzhar",
          "Participant 2": "Aldanazar Adiya",
          "Participant 3": "Sarymsakova Gaukhar"
        },
        {
          "No": 5,
          "Team name": "Under AI's wing",
          "Category": "Short Movie",
          "Country": "Kazakhstan",
          "Participant 1": "TOBASHOVA ALIYA",
          "Participant 2": "BAKTYBEK AMINA",
          "Participant 3": "MAKHMUD GAZALBANU"
        },
        {
          "No": 6,
          "Team name": "Vostok 5",
          "Category": "Short Movie",
          "Country": "Kazakhstan",
          "Participant 1": "Aldabergenuly Nurislam",
          "Participant 2": "Rymbekov Amir",
          "Participant 3": "Shakarim Alfarabi"
        },
        {
          "No": 7,
          "Team name": "DISCHARGE",
          "Category": "Short Movie",
          "Country": "Kazakhstan",
          "Participant 1": "Bekzat Nuray",
          "Participant 2": "Kumisbek Inkar",
          "Participant 3": "Abyz Zarina"
        },
        {
          "No": 8,
          "Team name": "Tandau Ozinde",
          "Category": "Short Movie",
          "Country": "Kazakhstan",
          "Participant 1": "Muratkyzy Merey",
          "Participant 2": "Zhumadil Ulpan",
          "Participant 3": "Abdikadyrova Aruzhan"
        },
        {
          "No": 9,
          "Team name": "Short Movie",
          "Category": "Short Movie",
          "Country": "Kyrgyzstan",
          "Participant 1": "Makenov Baiel",
          "Participant 2": "Turgunbekov Nurislam",
          "Participant 3": ""
        },
        {
          "No": 10,
          "Team name": "AI in Everyday Life",
          "Category": "Short Movie",
          "Country": "Kyrgyzstan",
          "Participant 1": "Bazakechov Ravil",
          "Participant 2": "Latipov Torogeldi",
          "Participant 3": ""
        },
        {
          "No": 11,
          "Team name": "Short movie",
          "Category": "Short Movie",
          "Country": "Kyrgyzstan",
          "Participant 1": "Saliev Arslan",
          "Participant 2": "Abdykalykov Umar",
          "Participant 3": "Nurmamatov Nurislam"
        },
        {
          "No": 12,
          "Team name": "Glitched",
          "Category": "Short Movie",
          "Country": "Kazakhstan",
          "Participant 1": "Daurenova Ailuna",
          "Participant 2": "Abidilla Gaukhar",
          "Participant 3": ""
        },
        {
          "No": 13,
          "Team name": "The First Step",
          "Category": "Short Movie",
          "Country": "Kazakhstan",
          "Participant 1": "Zharylkapkyzy Aiganym",
          "Participant 2": "Karazhigitova Amina",
          "Participant 3": ""
        },
        {
          "No": 14,
          "Team name": "RUNAWAY",
          "Category": "Short Movie",
          "Country": "Kazakhstan",
          "Participant 1": "Azat Alinur",
          "Participant 2": "",
          "Participant 3": ""
        },
        {
          "No": 15,
          "Team name": "Digital addiction and screen time",
          "Category": "Short Movie",
          "Country": "Kazakhstan",
          "Participant 1": "Zhumakhan Temirlan",
          "Participant 2": "Zhakhanbay Galymzhan",
          "Participant 3": "Sagatulla Bibarys"
        },
        {
          "No": 16,
          "Team name": "Encore",
          "Category": "Short Movie",
          "Country": "Kazakhstan",
          "Participant 1": "Arystan Danial",
          "Participant 2": "Sagynbek Arnur",
          "Participant 3": "Meleksha Sultan"
        },
        {
          "No": 17,
          "Team name": "Come back into my life",
          "Category": "Short Movie",
          "Country": "Kazakhstan",
          "Participant 1": "ADELYA ITIKENOVA",
          "Participant 2": "CHARIPOV YERALY",
          "Participant 3": ""
        },
        {
          "No": 18,
          "Team name": "Digital addiction and screen time",
          "Category": "Short Movie",
          "Country": "Kazakhstan",
          "Participant 1": "Sapa Adema",
          "Participant 2": "Abdumannapova Charos",
          "Participant 3": "Seidulla Kausar"
        },
        {
          "No": 19,
          "Team name": "ROLE",
          "Category": "Short Movie",
          "Country": "Kazakhstan",
          "Participant 1": "Tairov Zhassurbek",
          "Participant 2": "Sabyrzhan Mukhammedali",
          "Participant 3": ""
        },
        {
          "No": 20,
          "Team name": "Online Health and Safety for Children and Youth: Best Practices",
          "Category": "Short Movie",
          "Country": "Kyrgyzstan",
          "Participant 1": "Tynaliev Timur",
          "Participant 2": "Kurmanbekov Baktiyar",
          "Participant 3": ""
        },
        {
          "No": 21,
          "Team name": "The Phone",
          "Category": "Short Movie",
          "Country": "Kazakhstan",
          "Participant 1": "Nurmukhamet Karakat",
          "Participant 2": "Balgabekov Yerkebulan",
          "Participant 3": ""
        },
        {
          "No": 1,
          "Team name": "Roboduino",
          "Category": "Arduino Hackathon",
          "Country": "Kazakhstan",
          "Participant 1": "Moldir Tolbassy",
          "Participant 2": "Balakhozhayeva Dinara",
          "Participant 3": "Ashirbek Zhannelya"
        },
        {
          "No": 2,
          "Team name": "Arduino Robot with claws",
          "Category": "Arduino Hackathon",
          "Country": "Tajikistan",
          "Participant 1": "Kholiqzoda Damir",
          "Participant 2": "Isoev Samir",
          "Participant 3": ""
        },
        {
          "No": 3,
          "Team name": "HackForce",
          "Category": "Arduino Hackathon",
          "Country": "Kazakhstan",
          "Participant 1": "Kongyrat Aidar",
          "Participant 2": "Oparina Milana",
          "Participant 3": "Lee Sergey"
        },
        {
          "No": 4,
          "Team name": "TechnoDogs",
          "Category": "Arduino Hackathon",
          "Country": "Kazakhstan",
          "Participant 1": "Intykbayev David",
          "Participant 2": "Azhguzha Askhat",
          "Participant 3": "Timerbayev Manas"
        },
        {
          "No": 5,
          "Team name": "Arduino-Based Bluetooth-Controlled and Autonomous Robot Car",
          "Category": "Arduino Hackathon",
          "Country": "Kazakhstan",
          "Participant 1": "Sovet Mansur",
          "Participant 2": "Galymzhan Adilzhan",
          "Participant 3": "Rakhimzhanova Alua"
        },
        {
          "No": 6,
          "Team name": "Arduino Hackathon Robot Car Build - Team MoveProve",
          "Category": "Arduino Hackathon",
          "Country": "Kazakhstan",
          "Participant 1": "SULTANKUL SHYNGGYS",
          "Participant 2": "TELEBAYEV AYAN",
          "Participant 3": "JURANBAYEV AZAMAT"
        },
        {
          "No": 7,
          "Team name": "infiNIS",
          "Category": "Arduino Hackathon",
          "Country": "Kazakhstan",
          "Participant 1": "Kalikhan Adil",
          "Participant 2": "Malikov Imran",
          "Participant 3": "Myktybayev Daulet"
        },
        {
          "No": 8,
          "Team name": "Universe team",
          "Category": "Arduino Hackathon",
          "Country": "Kazakhstan",
          "Participant 1": "Marlanuly Dias",
          "Participant 2": "Malikovich Nurdaulet",
          "Participant 3": "Orkenuly Dauren"
        },
        {
          "No": 9,
          "Team name": "Arduino hakaton",
          "Category": "Arduino Hackathon",
          "Country": "Kazakhstan",
          "Participant 1": "Сташков Денис",
          "Participant 2": "Бочкарев Илья",
          "Participant 3": ""
        },
        {
          "No": 10,
          "Team name": "ROBO-X",
          "Category": "Arduino Hackathon",
          "Country": "Kazakhstan",
          "Participant 1": "Zhansoltan Yerzhan",
          "Participant 2": "Zhanbolat Omar",
          "Participant 3": "Yelarys Yerezhepuly"
        },
        {
          "No": 11,
          "Team name": "Arduino robot SAN",
          "Category": "Arduino Hackathon",
          "Country": "Kazakhstan",
          "Participant 1": "Oral Sanzhar",
          "Participant 2": "Kravchenko Nikita",
          "Participant 3": "Mukhambet Alikhan"
        },
        {
          "No": 12,
          "Team name": "Arduino robot ZAI",
          "Category": "Arduino Hackathon",
          "Country": "Kazakhstan",
          "Participant 1": "Kuanysheva Zhasmin",
          "Participant 2": "Nurpeiis Abylay",
          "Participant 3": "Satov Iskander"
        },
        {
          "No": 13,
          "Team name": "Arduino robot Bolly",
          "Category": "Arduino Hackathon",
          "Country": "Kazakhstan",
          "Participant 1": "Gauan Ulan",
          "Participant 2": "Tuyak Zhanggir",
          "Participant 3": "Mustakhim Alikhan"
        },
        {
          "No": 14,
          "Team name": "Arduino RC car",
          "Category": "Arduino Hackathon",
          "Country": "Kazakhstan",
          "Participant 1": "Mamyrkul Amir",
          "Participant 2": "Maratkyzy Rauana",
          "Participant 3": "Sarsenova Amani"
        },
        {
          "No": 15,
          "Team name": "Стем",
          "Category": "Arduino Hackathon",
          "Country": "Kazakhstan",
          "Participant 1": "Amir Sagdiyev",
          "Participant 2": "Alim Zhaksygeldi",
          "Participant 3": ""
        },
        {
          "No": 16,
          "Team name": "$WD robot",
          "Category": "Arduino Hackathon",
          "Country": "Kazakhstan",
          "Participant 1": "Kanatuly Nurakhmet",
          "Participant 2": "Rysbek Iliyas",
          "Participant 3": "Karim Ali"
        },
        {
          "No": 1,
          "Team name": "CYBORGS",
          "Category": "LEGO Relay Race Competition",
          "Country": "Uzbekistan",
          "Participant 1": "Salomov Nurbek",
          "Participant 2": "Bahromova Mahfuzakhon",
          "Participant 3": "Salohiddinov Sayfuddinkhon"
        },
        {
          "No": 2,
          "Team name": "Lego",
          "Category": "LEGO Relay Race Competition",
          "Country": "Kazakhstan",
          "Participant 1": "Yersain Yernazar",
          "Participant 2": "Kasymbek Salauat",
          "Participant 3": ""
        },
        {
          "No": 3,
          "Team name": "Inertia",
          "Category": "LEGO Relay Race Competition",
          "Country": "Uzbekistan",
          "Participant 1": "Paradayeva Ruhsora",
          "Participant 2": "Riskiboev Diyordek",
          "Participant 3": "Eshmurodov Ozodbek"
        },
        {
          "No": 4,
          "Team name": "LEGO Relay Race Competition",
          "Category": "LEGO Relay Race Competition",
          "Country": "Kazakhstan",
          "Participant 1": "Shadiyer Holmirzayev",
          "Participant 2": "Aruzhan Abdukayumova",
          "Participant 3": "Miranbek Bosimbekov"
        },
        {
          "No": 5,
          "Team name": "Everonce",
          "Category": "LEGO Relay Race Competition",
          "Country": "Kazakhstan",
          "Participant 1": "Pirverdiyev Iskander",
          "Participant 2": "Rakhmetov Talgat",
          "Participant 3": "Amanov Ikram"
        },
        {
          "No": 6,
          "Team name": "LEGO Relay Race Competition",
          "Category": "LEGO Relay Race Competition",
          "Country": "Kazakhstan",
          "Participant 1": "Bekasyl Uzakbay",
          "Participant 2": "Nurislam Taubai",
          "Participant 3": "Abylai Husainov"
        },
        {
          "No": 7,
          "Team name": "Ev3 lego robot",
          "Category": "LEGO Relay Race Competition",
          "Country": "Kazakhstan",
          "Participant 1": "Dilekchi Yassemin",
          "Participant 2": "Alimzhan Nafuza",
          "Participant 3": "Sadakbayeva Dzhanan"
        },
        {
          "No": 8,
          "Team name": "Lego Relay Race",
          "Category": "LEGO Relay Race Competition",
          "Country": "Kazakhstan",
          "Participant 1": "Bazarbay Nerdaulet",
          "Participant 2": "Ermurat Pernebay",
          "Participant 3": "Asylkhan Zhumagali"
        },
        {
          "No": 9,
          "Team name": "Lego Relay Race",
          "Category": "LEGO Relay Race Competition",
          "Country": "Kazakhstan",
          "Participant 1": "Smagulov Amir",
          "Participant 2": "Nazar Dosmakhambet",
          "Participant 3": ""
        },
        {
          "No": 10,
          "Team name": "Pantera",
          "Category": "LEGO Relay Race Competition",
          "Country": "Kazakhstan",
          "Participant 1": "Mansurov Zhantore",
          "Participant 2": "Abdizhappar Ramazan",
          "Participant 3": "Sailaubek Shyngys"
        },
        {
          "No": 11,
          "Team name": "KuboNavty",
          "Category": "LEGO Relay Race Competition",
          "Country": "Kazakhstan",
          "Participant 1": "Bahadirov Alibek",
          "Participant 2": "Sattar Eraly",
          "Participant 3": "Utegulov Ahmet"
        },
        {
          "No": 12,
          "Team name": "Lego Relay Race Competition",
          "Category": "LEGO Relay Race Competition",
          "Country": "Kazakhstan",
          "Participant 1": "Timur Zhumanzhanov",
          "Participant 2": "Arsen Kairatov",
          "Participant 3": "Alan Musahanov"
        },
        {
          "No": 13,
          "Team name": "WhiteHill",
          "Category": "LEGO Relay Race Competition",
          "Country": "Kazakhstan",
          "Participant 1": "Саматов Шыңғыс",
          "Participant 2": "Токтасынов Мади",
          "Participant 3": "Амангелді Азамат"
        },
        {
          "No": 14,
          "Team name": "Naizagay",
          "Category": "LEGO Relay Race Competition",
          "Country": "Kazakhstan",
          "Participant 1": "Rakym Rakyzhan",
          "Participant 2": "Balgazy Zhanarys",
          "Participant 3": "Sabertaev Aldiyar"
        },
        {
          "No": 15,
          "Team name": "Techies",
          "Category": "LEGO Relay Race Competition",
          "Country": "Kazakhstan",
          "Participant 1": "Cholak Yigit",
          "Participant 2": "Rakhimbek Anuar",
          "Participant 3": "Nurgali Nuralem"
        },
        {
          "No": 16,
          "Team name": "Ninja Turtles",
          "Category": "LEGO Relay Race Competition",
          "Country": "Kazakhstan",
          "Participant 1": "Saipzhamal Sardar",
          "Participant 2": "Ashitov Arlan",
          "Participant 3": "Uvalieva Amina"
        },
        {
          "No": 17,
          "Team name": "Blaze",
          "Category": "LEGO Relay Race Competition",
          "Country": "Kazakhstan",
          "Participant 1": "Nurmatova Jasmin",
          "Participant 2": "Murat Anel",
          "Participant 3": "Tursynbayeva Balzhan"
        },
        {
          "No": 18,
          "Team name": "nurs.ai",
          "Category": "LEGO Relay Race Competition",
          "Country": "Kazakhstan",
          "Participant 1": "Issatay Sultanbi",
          "Participant 2": "Issabekov Alpamys",
          "Participant 3": "Yerzhan Assulan"
        },
        {
          "No": 19,
          "Team name": "Wings",
          "Category": "LEGO Relay Race Competition",
          "Country": "Kazakhstan",
          "Participant 1": "Kopishaeva Yunissa",
          "Participant 2": "Mukataeva Tamina",
          "Participant 3": "Abikhanova Danel"
        },
        {
          "No": 20,
          "Team name": "TurboRunner",
          "Category": "LEGO Relay Race Competition",
          "Country": "Kyrgyzstan",
          "Participant 1": "Tynchtykbekov Aivar",
          "Participant 2": "Symbatbekov Enisei",
          "Participant 3": "Egemkulov Marsel"
        },
        {
          "No": 21,
          "Team name": "LRRC",
          "Category": "LEGO Relay Race Competition",
          "Country": "Kazakhstan",
          "Participant 1": "Karimzhanov Dinmukhammad",
          "Participant 2": "Issakhan Nadyr",
          "Participant 3": "Issakhan Zhamshid"
        },
        {
          "No": 22,
          "Team name": "SHÂM team",
          "Category": "LEGO Relay Race Competition",
          "Country": "Kazakhstan",
          "Participant 1": "Syrym Aisha",
          "Participant 2": "Amangeldi Fatina",
          "Participant 3": "Aitmuratova Diana"
        },
        {
          "No": 23,
          "Team name": "Tanyl Tech",
          "Category": "LEGO Relay Race Competition",
          "Country": "Kazakhstan",
          "Participant 1": "Zulpykharuly Mukhammedali",
          "Participant 2": "Abdukalikov Bekzad",
          "Participant 3": "Zhandarbek Erdaulet"
        },
        {
          "No": 24,
          "Team name": "LEGO Relay Race Competition",
          "Category": "LEGO Relay Race Competition",
          "Country": "Kazakhstan",
          "Participant 1": "Kabdyras Dinmuhammed",
          "Participant 2": "Asqarbekuly Alinur",
          "Participant 3": ""
        },
        {
          "No": 25,
          "Team name": "Bolt",
          "Category": "LEGO Relay Race Competition",
          "Country": "Kyrgyzstan",
          "Participant 1": "Akbaraliev Ariet",
          "Participant 2": "Salybekov Iskender",
          "Participant 3": "Asankulov Yryskeldi"
        },
        {
          "No": 26,
          "Team name": "Lego Relay Race",
          "Category": "LEGO Relay Race Competition",
          "Country": "Kazakhstan",
          "Participant 1": "Makhanbet Nurdaulet",
          "Participant 2": "Polat Efe Can",
          "Participant 3": "Mairkan Ramazan"
        },
        {
          "No": 27,
          "Team name": "Lego relay race",
          "Category": "LEGO Relay Race Competition",
          "Country": "Kazakhstan",
          "Participant 1": "Selkhanova Dariya",
          "Participant 2": "Serikbay Rayana",
          "Participant 3": "Samarkhan Fatima"
        },
        {
          "No": 28,
          "Team name": "Lego Relay Race Robots",
          "Category": "LEGO Relay Race Competition",
          "Country": "Kazakhstan",
          "Participant 1": "Amirtay Imangali",
          "Participant 2": "Malikov Sanzhar",
          "Participant 3": "Baktygulov Aben"
        },
        {
          "No": 1,
          "Team name": "PlastX",
          "Category": "Startup",
          "Country": "Kazakhstan",
          "Participant 1": "Orazaly Yerkenaz",
          "Participant 2": "Ramazanova Fariza",
          "Participant 3": "Kaziyeva Sagynysh"
        },
        {
          "No": 2,
          "Team name": "iCompile",
          "Category": "Startup",
          "Country": "Kazakhstan",
          "Participant 1": "Anarbek Arsen",
          "Participant 2": "Turar Adelya",
          "Participant 3": "Shubay Kassymzhomart"
        },
        {
          "No": 3,
          "Team name": "EnviroTrack",
          "Category": "Startup",
          "Country": "Kazakhstan",
          "Participant 1": "Rustamov Nuriddin",
          "Participant 2": "Tcoi Nikolai",
          "Participant 3": "Arsigit Muhammad Rafael"
        },
        {
          "No": 4,
          "Team name": "AgriBotics",
          "Category": "Startup",
          "Country": "Kazakhstan",
          "Participant 1": "Shubay Kassymzhomart",
          "Participant 2": "Anarbek Arsen",
          "Participant 3": "Akhylbek Aray"
        },
        {
          "No": 5,
          "Team name": "Beelieve",
          "Category": "Startup",
          "Country": "Kazakhstan",
          "Participant 1": "Aidarkhan Amirkhan",
          "Participant 2": "Bekbulat Zhangerey",
          "Participant 3": "Dauleti Adilet"
        },
        {
          "No": 6,
          "Team name": "ASYQ in VR",
          "Category": "Startup",
          "Country": "Kazakhstan",
          "Participant 1": "Yermukhametov Djalil",
          "Participant 2": "",
          "Participant 3": ""
        },
        {
          "No": 7,
          "Team name": "Asar",
          "Category": "Startup",
          "Country": "Kazakhstan",
          "Participant 1": "Sagandykov Aliyar",
          "Participant 2": "Zhumakadyr Yerassyl",
          "Participant 3": "Koshmambetov Aimer"
        },
        {
          "No": 8,
          "Team name": "NomadTrack",
          "Category": "Startup",
          "Country": "Kazakhstan",
          "Participant 1": "Ziyabek Nurbek",
          "Participant 2": "",
          "Participant 3": ""
        },
        {
          "No": 9,
          "Team name": "Qaiyrym",
          "Category": "Startup",
          "Country": "Kazakhstan",
          "Participant 1": "Sokolov David",
          "Participant 2": "Ainabaeva Medina",
          "Participant 3": "Saltanat Assaniyaz"
        },
        {
          "No": 10,
          "Team name": "UNIFIND",
          "Category": "Startup",
          "Country": "Kazakhstan",
          "Participant 1": "Abylgazina Adiya",
          "Participant 2": "Zhanaidarov Makhdi",
          "Participant 3": "Kazhimurat Aishaiym"
        },
        {
          "No": 11,
          "Team name": "Soile AI",
          "Category": "Startup",
          "Country": "Kazakhstan",
          "Participant 1": "Omarova Ukili",
          "Participant 2": "Sultanov Kamil",
          "Participant 3": "Medelbekov Miras"
        },
        {
          "No": 12,
          "Team name": "math12.studio - your AI-powered math tutor",
          "Category": "Startup",
          "Country": "Kazakhstan",
          "Participant 1": "BAZARBAYEV YERASSYL",
          "Participant 2": "",
          "Participant 3": ""
        },
        {
          "No": 13,
          "Team name": "Qyzbolsyn",
          "Category": "Startup",
          "Country": "Kazakhstan",
          "Participant 1": "Almaskyzy Sabina",
          "Participant 2": "Kenzhegaliyeva Zhaniya",
          "Participant 3": "Massakbayeva Zhansaya"
        },
        {
          "No": 14,
          "Team name": "ReFood",
          "Category": "Startup",
          "Country": "Kazakhstan",
          "Participant 1": "Sagymbay Aibek",
          "Participant 2": "Abildin Alizhan",
          "Participant 3": "Seryktay Adil"
        },
        {
          "No": 15,
          "Team name": "BeBetter",
          "Category": "Startup",
          "Country": "Kazakhstan",
          "Participant 1": "Zhanarbek Ramazan",
          "Participant 2": "Talgatbek Aidar",
          "Participant 3": ""
        },
        {
          "No": 16,
          "Team name": "Green Basket",
          "Category": "Startup",
          "Country": "Kazakhstan",
          "Participant 1": "Zholaman Alina",
          "Participant 2": "Akhmedina Tomiris",
          "Participant 3": "Shaikhutdinova Zhanbike"
        },
        {
          "No": 17,
          "Team name": "Hero Beauty",
          "Category": "Startup",
          "Country": "Kazakhstan",
          "Participant 1": "Odar Nihal",
          "Participant 2": "Cholak Nihal",
          "Participant 3": ""
        },
        {
          "No": 18,
          "Team name": "My Portfolio",
          "Category": "Startup",
          "Country": "Kazakhstan",
          "Participant 1": "Zharylkapkyzy Aiganym",
          "Participant 2": "Karazhigitova Amina",
          "Participant 3": ""
        },
        {
          "No": 19,
          "Team name": "ClearVoice",
          "Category": "Startup",
          "Country": "Kazakhstan",
          "Participant 1": "Farida Serikova",
          "Participant 2": "Akmaral Dyusembayeva",
          "Participant 3": "Aiym Tileuberli"
        },
        {
          "No": 20,
          "Team name": "ZherSoilScan",
          "Category": "Startup",
          "Country": "Kazakhstan",
          "Participant 1": "Kzylbayev Alibek",
          "Participant 2": "Gazizkyzy Aikenzhe",
          "Participant 3": "Temirkhan Arailym"
        },
        {
          "No": 21,
          "Team name": "Software and hardware complex for analysis of agricultural soils with centralized control \"Zheruyyk",
          "Category": "Startup",
          "Country": "Kazakhstan",
          "Participant 1": "Zhanibek Aruzhan",
          "Participant 2": "",
          "Participant 3": ""
        },
        {
          "No": 22,
          "Team name": "iBlock",
          "Category": "Startup",
          "Country": "Kazakhstan",
          "Participant 1": "Bakiram Balnur",
          "Participant 2": "Bolat Khamida",
          "Participant 3": ""
        },
        {
          "No": 23,
          "Team name": "ReneWear",
          "Category": "Startup",
          "Country": "Kazakhstan",
          "Participant 1": "Zhumazhan Dilda",
          "Participant 2": "",
          "Participant 3": ""
        },
        {
          "No": 24,
          "Team name": "Janaru",
          "Category": "Startup",
          "Country": "Kazakhstan",
          "Participant 1": "Kulmagambetov Karim",
          "Participant 2": "Rashid Danial",
          "Participant 3": "Don Artem"
        },
        {
          "No": 25,
          "Team name": "AntiCredit",
          "Category": "Startup",
          "Country": "Kazakhstan",
          "Participant 1": "Kurbanova Alina",
          "Participant 2": "Aimakhan Balaussa",
          "Participant 3": "Duisenali Arailym"
        },
        {
          "No": 26,
          "Team name": "Eco-nscious: Revolutionizing Sustainable Fashion with Recycled Plastic",
          "Category": "Startup",
          "Country": "Kazakhstan",
          "Participant 1": "Abzal Almaz",
          "Participant 2": "Muratbek Alikhan",
          "Participant 3": ""
        },
        {
          "No": 27,
          "Team name": "PIEZOELECTRIC ENERGY",
          "Category": "Startup",
          "Country": "Kazakhstan",
          "Participant 1": "Muratkali YErsultan",
          "Participant 2": "Bekkaliyev Sultan",
          "Participant 3": ""
        },
        {
          "No": 28,
          "Team name": "Make world easier for visually impaired people with Unlimited",
          "Category": "Startup",
          "Country": "Kazakhstan",
          "Participant 1": "Nariman Ikhlas",
          "Participant 2": "Pashayev Amir",
          "Participant 3": ""
        },
        {
          "No": 29,
          "Team name": "Lume-AR",
          "Category": "Startup",
          "Country": "Kazakhstan",
          "Participant 1": "Nuradinkyzy Gaziza",
          "Participant 2": "Kobylashova Assiya",
          "Participant 3": ""
        },
        {
          "No": 30,
          "Team name": "TanymHelp",
          "Category": "Startup",
          "Country": "Kazakhstan",
          "Participant 1": "Demegen Alisher",
          "Participant 2": "Koblash Arslan",
          "Participant 3": "Sarsenbay Batyrkhan"
        },
        {
          "No": 31,
          "Team name": "Ultrasound Machine",
          "Category": "Startup",
          "Country": "Kazakhstan",
          "Participant 1": "Leskhankyzy Zhuldyzay",
          "Participant 2": "Almukhanbetova Tomiris",
          "Participant 3": ""
        },
        {
          "No": 32,
          "Team name": "onayoqu",
          "Category": "Startup",
          "Country": "Kazakhstan",
          "Participant 1": "Moldagaliyev Alibek",
          "Participant 2": "Myrzabekov Arlan",
          "Participant 3": "Kustavletov Sanzhar"
        },
        {
          "No": 33,
          "Team name": "FireGuardian",
          "Category": "Startup",
          "Country": "Kazakhstan",
          "Participant 1": "Tuganbayev Demeu",
          "Participant 2": "Shamuratov Tair",
          "Participant 3": "Abilov Aldiyar"
        },
        {
          "No": 34,
          "Team name": "Úmit",
          "Category": "Startup",
          "Country": "Kazakhstan",
          "Participant 1": "Tazhikhan Madi",
          "Participant 2": "",
          "Participant 3": ""
        },
        {
          "No": 35,
          "Team name": "MineSafe",
          "Category": "Startup",
          "Country": "Kazakhstan",
          "Participant 1": "Tuganbayev Demeu",
          "Participant 2": "Abilov Aldiyar",
          "Participant 3": "Duisembay Elnadir"
        },
        {
          "No": 36,
          "Team name": "DeBetter",
          "Category": "Startup",
          "Country": "Kazakhstan",
          "Participant 1": "Tursymbayev Nurassyl",
          "Participant 2": "Zhunussov Dauren",
          "Participant 3": "Karibozin Baubek"
        },
        {
          "No": 37,
          "Team name": "Green Shield",
          "Category": "Startup",
          "Country": "Kazakhstan",
          "Participant 1": "Serikov Iliyas",
          "Participant 2": "Muzafar Nurtore",
          "Participant 3": ""
        },
        {
          "No": 38,
          "Team name": "TeenGo",
          "Category": "Startup",
          "Country": "Kazakhstan",
          "Participant 1": "Gumarkyzy Assiya",
          "Participant 2": "Kamzaev Abdikarim",
          "Participant 3": "Boshman Bibinur"
        },
        {
          "No": 39,
          "Team name": "The golden path",
          "Category": "Startup",
          "Country": "Kazakhstan",
          "Participant 1": "Kussaiyn Azbike",
          "Participant 2": "Adylbekova Aiym",
          "Participant 3": "Issayeva Altynay"
        },
        {
          "No": 40,
          "Team name": "Tamshy",
          "Category": "Startup",
          "Country": "Kazakhstan",
          "Participant 1": "Serik Guldariga",
          "Participant 2": "Nurym Fatima",
          "Participant 3": ""
        }
      ]
}