[
    {
        "id" : "youtubelink",
        "label" : "Video presentation of the project(upload video on youtube and put here link)",
        "type" : "input",
        "isrquired": true
    },
    {
        "id" : "categoryselected",
        "label" : "Select your category in Computer Programming",
        "type": "select",
        "isRequired": true,
        "values":["Web application","Mobile application","Desktop application"]
    }
]